%YAML 1.1
%TAG !u! tag:unity3d.com,2011:
--- !u!114 &11400000
MonoBehaviour:
  m_ObjectHideFlags: 0
  m_CorrespondingSourceObject: {fileID: 0}
  m_PrefabInstance: {fileID: 0}
  m_PrefabAsset: {fileID: 0}
  m_GameObject: {fileID: 0}
  m_Enabled: 1
  m_EditorHideFlags: 0
  m_Script: {fileID: 11500000, guid: a3519d3891a6b1c4bbb7e7f03be3f016, type: 3}
  m_Name: Armor
  m_EditorClassIdentifier: 
  itemName: 
  amount: 0
  icon: {fileID: 21300000, guid: 0ac55f9f886d827408c102bdf33c5ff7, type: 3}
  stackable: 0
  itemType: 3
