%YAML 1.1
%TAG !u! tag:unity3d.com,2011:
--- !u!114 &11400000
MonoBehaviour:
  m_ObjectHideFlags: 0
  m_CorrespondingSourceObject: {fileID: 0}
  m_PrefabInstance: {fileID: 0}
  m_PrefabAsset: {fileID: 0}
  m_GameObject: {fileID: 0}
  m_Enabled: 1
  m_EditorHideFlags: 0
  m_Script: {fileID: 11500000, guid: 9cd9488e7e3a0044faad658914bfe789, type: 3}
  m_Name: EnemytestWeapon
  m_EditorClassIdentifier: 
  itemName: 
  amount: 0
  icon: {fileID: 0}
  stackable: 0
  itemType: 1
  <DefaultParametersList>k__BackingField:
  - itemParameter: {fileID: 0}
    value: 0
  - itemParameter: {fileID: 0}
    value: 0
  - itemParameter: {fileID: 0}
    value: 0
  damage: 1
  Range: 10
  fireRate: 0.5
  magSize: 30
  currentAmmo: 2147483560
  burstInterval: 0
  burstAmount: 1
  ammoType: {fileID: 0}
  fireMode: 0
