%YAML 1.1
%TAG !u! tag:unity3d.com,2011:
--- !u!1 &3497580798422220728
GameObject:
  m_ObjectHideFlags: 0
  m_CorrespondingSourceObject: {fileID: 0}
  m_PrefabInstance: {fileID: 0}
  m_PrefabAsset: {fileID: 0}
  serializedVersion: 6
  m_Component:
  - component: {fileID: 3497580798422220726}
  - component: {fileID: 3497580798422220725}
  - component: {fileID: 3497580798422220724}
  - component: {fileID: 3497580798422220731}
  - component: {fileID: 3497580798422220730}
  - component: {fileID: 3497580798422220729}
  m_Layer: 0
  m_Name: cold switch
  m_TagString: Untagged
  m_Icon: {fileID: 0}
  m_NavMeshLayer: 0
  m_StaticEditorFlags: 2147483647
  m_IsActive: 1
--- !u!4 &3497580798422220726
Transform:
  m_ObjectHideFlags: 0
  m_CorrespondingSourceObject: {fileID: 0}
  m_PrefabInstance: {fileID: 0}
  m_PrefabAsset: {fileID: 0}
  m_GameObject: {fileID: 3497580798422220728}
  m_LocalRotation: {x: -0, y: -0, z: -0, w: 1}
  m_LocalPosition: {x: 0.197, y: 0.0716, z: 0.4409}
  m_LocalScale: {x: 1, y: 1, z: 1}
  m_ConstrainProportionsScale: 0
  m_Children: []
  m_Father: {fileID: 3497580798477640675}
  m_RootOrder: 3
  m_LocalEulerAnglesHint: {x: 0, y: 0, z: 0}
--- !u!114 &3497580798422220725
MonoBehaviour:
  m_ObjectHideFlags: 0
  m_CorrespondingSourceObject: {fileID: 0}
  m_PrefabInstance: {fileID: 0}
  m_PrefabAsset: {fileID: 0}
  m_GameObject: {fileID: 3497580798422220728}
  m_Enabled: 1
  m_EditorHideFlags: 0
  m_Script: {fileID: 11500000, guid: 8233d90336aea43098adf6dbabd606a2, type: 3}
  m_Name: 
  m_EditorClassIdentifier: 
  m_MeshFormatVersion: 2
  m_Faces:
  - m_Indexes: 000000000100000002000000010000000300000002000000
    m_SmoothingGroup: 0
    m_Uv:
      m_UseWorldSpace: 0
      m_FlipU: 0
      m_FlipV: 0
      m_SwapUV: 0
      m_Fill: 1
      m_Scale: {x: 1, y: 1}
      m_Offset: {x: 0, y: 0}
      m_Rotation: 0
      m_Anchor: 9
    m_Material: {fileID: 0}
    m_SubmeshIndex: 0
    m_ManualUV: 0
    elementGroup: -1
    m_TextureGroup: -1
  - m_Indexes: 040000000500000006000000050000000700000006000000
    m_SmoothingGroup: 0
    m_Uv:
      m_UseWorldSpace: 0
      m_FlipU: 0
      m_FlipV: 0
      m_SwapUV: 0
      m_Fill: 1
      m_Scale: {x: 1, y: 1}
      m_Offset: {x: 0, y: 0}
      m_Rotation: 0
      m_Anchor: 9
    m_Material: {fileID: 0}
    m_SubmeshIndex: 0
    m_ManualUV: 0
    elementGroup: -1
    m_TextureGroup: -1
  - m_Indexes: 08000000090000000a000000090000000b0000000a000000
    m_SmoothingGroup: 0
    m_Uv:
      m_UseWorldSpace: 0
      m_FlipU: 0
      m_FlipV: 0
      m_SwapUV: 0
      m_Fill: 1
      m_Scale: {x: 1, y: 1}
      m_Offset: {x: 0, y: 0}
      m_Rotation: 0
      m_Anchor: 9
    m_Material: {fileID: 0}
    m_SubmeshIndex: 0
    m_ManualUV: 0
    elementGroup: -1
    m_TextureGroup: -1
  - m_Indexes: 0c0000000d0000000e0000000d0000000f0000000e000000
    m_SmoothingGroup: 0
    m_Uv:
      m_UseWorldSpace: 0
      m_FlipU: 0
      m_FlipV: 0
      m_SwapUV: 0
      m_Fill: 1
      m_Scale: {x: 1, y: 1}
      m_Offset: {x: 0, y: 0}
      m_Rotation: 0
      m_Anchor: 9
    m_Material: {fileID: 0}
    m_SubmeshIndex: 0
    m_ManualUV: 0
    elementGroup: -1
    m_TextureGroup: -1
  - m_Indexes: 100000001100000012000000110000001300000012000000
    m_SmoothingGroup: 0
    m_Uv:
      m_UseWorldSpace: 0
      m_FlipU: 0
      m_FlipV: 0
      m_SwapUV: 0
      m_Fill: 1
      m_Scale: {x: 1, y: 1}
      m_Offset: {x: 0, y: 0}
      m_Rotation: 0
      m_Anchor: 9
    m_Material: {fileID: 0}
    m_SubmeshIndex: 0
    m_ManualUV: 0
    elementGroup: -1
    m_TextureGroup: -1
  - m_Indexes: 140000001500000016000000150000001700000016000000
    m_SmoothingGroup: 0
    m_Uv:
      m_UseWorldSpace: 0
      m_FlipU: 0
      m_FlipV: 0
      m_SwapUV: 0
      m_Fill: 1
      m_Scale: {x: 1, y: 1}
      m_Offset: {x: 0, y: 0}
      m_Rotation: 0
      m_Anchor: 9
    m_Material: {fileID: 0}
    m_SubmeshIndex: 0
    m_ManualUV: 0
    elementGroup: -1
    m_TextureGroup: -1
  m_SharedVertices:
  - m_Vertices: 000000000d00000016000000
  - m_Vertices: 010000000400000017000000
  - m_Vertices: 020000000f00000010000000
  - m_Vertices: 030000000600000011000000
  - m_Vertices: 050000000800000015000000
  - m_Vertices: 070000000a00000013000000
  - m_Vertices: 090000000c00000014000000
  - m_Vertices: 0b0000000e00000012000000
  m_SharedTextures: []
  m_Positions:
  - {x: -0.01910454, y: -0.05, z: 0.019529194}
  - {x: 0.019490153, y: -0.05, z: 0.019529194}
  - {x: -0.01910454, y: 0.05, z: 0.019529194}
  - {x: 0.019490153, y: 0.05, z: 0.019529194}
  - {x: 0.019490153, y: -0.05, z: 0.019529194}
  - {x: 0.019490153, y: -0.05, z: -0.02015987}
  - {x: 0.019490153, y: 0.05, z: 0.019529194}
  - {x: 0.019490153, y: 0.05, z: -0.02015987}
  - {x: 0.019490153, y: -0.05, z: -0.02015987}
  - {x: -0.01910454, y: -0.05, z: -0.02015987}
  - {x: 0.019490153, y: 0.05, z: -0.02015987}
  - {x: -0.01910454, y: 0.05, z: -0.02015987}
  - {x: -0.01910454, y: -0.05, z: -0.02015987}
  - {x: -0.01910454, y: -0.05, z: 0.019529194}
  - {x: -0.01910454, y: 0.05, z: -0.02015987}
  - {x: -0.01910454, y: 0.05, z: 0.019529194}
  - {x: -0.01910454, y: 0.05, z: 0.019529194}
  - {x: 0.019490153, y: 0.05, z: 0.019529194}
  - {x: -0.01910454, y: 0.05, z: -0.02015987}
  - {x: 0.019490153, y: 0.05, z: -0.02015987}
  - {x: -0.01910454, y: -0.05, z: -0.02015987}
  - {x: 0.019490153, y: -0.05, z: -0.02015987}
  - {x: -0.01910454, y: -0.05, z: 0.019529194}
  - {x: 0.019490153, y: -0.05, z: 0.019529194}
  m_Textures0:
  - {x: 0.01910454, y: -0.05}
  - {x: -0.019490153, y: -0.05}
  - {x: 0.01910454, y: 0.05}
  - {x: -0.019490153, y: 0.05}
  - {x: 0.019529194, y: -0.05}
  - {x: -0.02015987, y: -0.05}
  - {x: 0.019529194, y: 0.05}
  - {x: -0.02015987, y: 0.05}
  - {x: 0.019490153, y: -0.05}
  - {x: -0.01910454, y: -0.05}
  - {x: 0.019490153, y: 0.05}
  - {x: -0.01910454, y: 0.05}
  - {x: 0.02015987, y: -0.05}
  - {x: -0.019529194, y: -0.05}
  - {x: 0.02015987, y: 0.05}
  - {x: -0.019529194, y: 0.05}
  - {x: -0.01910454, y: 0.019529194}
  - {x: 0.019490153, y: 0.019529194}
  - {x: -0.01910454, y: -0.02015987}
  - {x: 0.019490153, y: -0.02015987}
  - {x: 0.01910454, y: -0.02015987}
  - {x: -0.019490153, y: -0.02015987}
  - {x: 0.01910454, y: 0.019529194}
  - {x: -0.019490153, y: 0.019529194}
  m_Textures2: []
  m_Textures3: []
  m_Tangents:
  - {x: -1, y: 0, z: 0, w: -1}
  - {x: -1, y: 0, z: 0, w: -1}
  - {x: -1, y: 0, z: 0, w: -1}
  - {x: -1, y: 0, z: 0, w: -1}
  - {x: 0, y: 0, z: 1, w: -1}
  - {x: 0, y: 0, z: 1, w: -1}
  - {x: 0, y: 0, z: 1, w: -1}
  - {x: 0, y: 0, z: 1, w: -1}
  - {x: 1, y: 0, z: 0, w: -1}
  - {x: 1, y: 0, z: 0, w: -1}
  - {x: 1, y: 0, z: 0, w: -1}
  - {x: 1, y: 0, z: 0, w: -1}
  - {x: 0, y: 0, z: -1, w: -1}
  - {x: 0, y: 0, z: -1, w: -1}
  - {x: 0, y: 0, z: -1, w: -1}
  - {x: 0, y: 0, z: -1, w: -1}
  - {x: 1, y: 0, z: 0, w: -1}
  - {x: 1, y: 0, z: 0, w: -1}
  - {x: 1, y: 0, z: 0, w: -1}
  - {x: 1, y: 0, z: 0, w: -1}
  - {x: -1, y: 0, z: 0, w: -1}
  - {x: -1, y: 0, z: 0, w: -1}
  - {x: -1, y: 0, z: 0, w: -1}
  - {x: -1, y: 0, z: 0, w: -1}
  m_Colors: []
  m_UnwrapParameters:
    m_HardAngle: 88
    m_PackMargin: 20
    m_AngleError: 8
    m_AreaError: 15
  m_PreserveMeshAssetOnDestroy: 0
  assetGuid: 
  m_Mesh: {fileID: 0}
  m_VersionIndex: 1317
  m_IsSelectable: 1
  m_SelectedFaces: 
  m_SelectedEdges: []
  m_SelectedVertices: 
--- !u!114 &3497580798422220724
MonoBehaviour:
  m_ObjectHideFlags: 0
  m_CorrespondingSourceObject: {fileID: 0}
  m_PrefabInstance: {fileID: 0}
  m_PrefabAsset: {fileID: 0}
  m_GameObject: {fileID: 3497580798422220728}
  m_Enabled: 1
  m_EditorHideFlags: 0
  m_Script: {fileID: 11500000, guid: 1ca002da428252441b92f28d83c8a65f, type: 3}
  m_Name: 
  m_EditorClassIdentifier: 
  m_Shape:
    rid: 7499466711613833219
  m_Size: {x: 0.1, y: 0.1, z: 0.1}
  m_Rotation: {x: 0, y: 0, z: 0, w: 1}
  m_PivotLocation: 0
  m_PivotPosition: {x: 0, y: 0, z: 0}
  m_UnmodifiedMeshVersion: 603
  m_ShapeBox:
    m_Center: {x: 0, y: 0, z: 0}
    m_Extent: {x: 0.05, y: 0.05, z: 0.05}
  references:
    version: 2
    RefIds:
    - rid: 7499466711613833219
      type: {class: Cube, ns: UnityEngine.ProBuilder.Shapes, asm: Unity.ProBuilder}
--- !u!23 &3497580798422220731
MeshRenderer:
  m_ObjectHideFlags: 0
  m_CorrespondingSourceObject: {fileID: 0}
  m_PrefabInstance: {fileID: 0}
  m_PrefabAsset: {fileID: 0}
  m_GameObject: {fileID: 3497580798422220728}
  m_Enabled: 1
  m_CastShadows: 1
  m_ReceiveShadows: 1
  m_DynamicOccludee: 1
  m_StaticShadowCaster: 0
  m_MotionVectors: 1
  m_LightProbeUsage: 1
  m_ReflectionProbeUsage: 1
  m_RayTracingMode: 2
  m_RayTraceProcedural: 0
  m_RenderingLayerMask: 1
  m_RendererPriority: 0
  m_Materials:
  - {fileID: 2100000, guid: 857a532d80f78f44898097cab88db39f, type: 2}
  m_StaticBatchInfo:
    firstSubMesh: 0
    subMeshCount: 0
  m_StaticBatchRoot: {fileID: 0}
  m_ProbeAnchor: {fileID: 0}
  m_LightProbeVolumeOverride: {fileID: 0}
  m_ScaleInLightmap: 1
  m_ReceiveGI: 1
  m_PreserveUVs: 0
  m_IgnoreNormalsForChartDetection: 0
  m_ImportantGI: 0
  m_StitchLightmapSeams: 1
  m_SelectedEditorRenderState: 2
  m_MinimumChartSize: 4
  m_AutoUVMaxDistance: 0.5
  m_AutoUVMaxAngle: 89
  m_LightmapParameters: {fileID: 0}
  m_SortingLayerID: 0
  m_SortingLayer: 0
  m_SortingOrder: 0
  m_AdditionalVertexStreams: {fileID: 0}
--- !u!33 &3497580798422220730
MeshFilter:
  m_ObjectHideFlags: 0
  m_CorrespondingSourceObject: {fileID: 0}
  m_PrefabInstance: {fileID: 0}
  m_PrefabAsset: {fileID: 0}
  m_GameObject: {fileID: 3497580798422220728}
  m_Mesh: {fileID: 0}
--- !u!64 &3497580798422220729
MeshCollider:
  m_ObjectHideFlags: 0
  m_CorrespondingSourceObject: {fileID: 0}
  m_PrefabInstance: {fileID: 0}
  m_PrefabAsset: {fileID: 0}
  m_GameObject: {fileID: 3497580798422220728}
  m_Material: {fileID: 0}
  m_IsTrigger: 0
  m_Enabled: 1
  serializedVersion: 4
  m_Convex: 0
  m_CookingOptions: 30
  m_Mesh: {fileID: 0}
--- !u!1 &3497580798477640674
GameObject:
  m_ObjectHideFlags: 0
  m_CorrespondingSourceObject: {fileID: 0}
  m_PrefabInstance: {fileID: 0}
  m_PrefabAsset: {fileID: 0}
  serializedVersion: 6
  m_Component:
  - component: {fileID: 3497580798477640675}
  m_Layer: 0
  m_Name: shower block
  m_TagString: Untagged
  m_Icon: {fileID: 0}
  m_NavMeshLayer: 0
  m_StaticEditorFlags: 2147483647
  m_IsActive: 1
--- !u!4 &3497580798477640675
Transform:
  m_ObjectHideFlags: 0
  m_CorrespondingSourceObject: {fileID: 0}
  m_PrefabInstance: {fileID: 0}
  m_PrefabAsset: {fileID: 0}
  m_GameObject: {fileID: 3497580798477640674}
  m_LocalRotation: {x: 0, y: 0, z: 0, w: 1}
  m_LocalPosition: {x: -0.243, y: 0, z: 0}
  m_LocalScale: {x: 1, y: 1, z: 1}
  m_ConstrainProportionsScale: 0
  m_Children:
  - {fileID: 3497580800160512032}
  - {fileID: 3497580799484107948}
  - {fileID: 3497580799567957010}
  - {fileID: 3497580798422220726}
  m_Father: {fileID: 0}
  m_RootOrder: 0
  m_LocalEulerAnglesHint: {x: 0, y: 0, z: 0}
--- !u!1 &3497580799484107990
GameObject:
  m_ObjectHideFlags: 0
  m_CorrespondingSourceObject: {fileID: 0}
  m_PrefabInstance: {fileID: 0}
  m_PrefabAsset: {fileID: 0}
  serializedVersion: 6
  m_Component:
  - component: {fileID: 3497580799484107948}
  - component: {fileID: 3497580799484107987}
  - component: {fileID: 3497580799484107986}
  - component: {fileID: 3497580799484107985}
  - component: {fileID: 3497580799484107984}
  - component: {fileID: 3497580799484107991}
  m_Layer: 0
  m_Name: shower head
  m_TagString: Untagged
  m_Icon: {fileID: 0}
  m_NavMeshLayer: 0
  m_StaticEditorFlags: 2147483647
  m_IsActive: 1
--- !u!4 &3497580799484107948
Transform:
  m_ObjectHideFlags: 0
  m_CorrespondingSourceObject: {fileID: 0}
  m_PrefabInstance: {fileID: 0}
  m_PrefabAsset: {fileID: 0}
  m_GameObject: {fileID: 3497580799484107990}
  m_LocalRotation: {x: -0, y: -0, z: -0, w: 1}
  m_LocalPosition: {x: -0.0059999973, y: 0, z: -0.532}
  m_LocalScale: {x: 1, y: 1, z: 1}
  m_ConstrainProportionsScale: 0
  m_Children: []
  m_Father: {fileID: 3497580798477640675}
  m_RootOrder: 1
  m_LocalEulerAnglesHint: {x: 0, y: 0, z: 0}
--- !u!114 &3497580799484107987
MonoBehaviour:
  m_ObjectHideFlags: 0
  m_CorrespondingSourceObject: {fileID: 0}
  m_PrefabInstance: {fileID: 0}
  m_PrefabAsset: {fileID: 0}
  m_GameObject: {fileID: 3497580799484107990}
  m_Enabled: 1
  m_EditorHideFlags: 0
  m_Script: {fileID: 11500000, guid: 8233d90336aea43098adf6dbabd606a2, type: 3}
  m_Name: 
  m_EditorClassIdentifier: 
  m_MeshFormatVersion: 2
  m_Faces:
  - m_Indexes: 000000000100000002000000010000000300000002000000
    m_SmoothingGroup: 0
    m_Uv:
      m_UseWorldSpace: 0
      m_FlipU: 0
      m_FlipV: 0
      m_SwapUV: 0
      m_Fill: 1
      m_Scale: {x: 1, y: 1}
      m_Offset: {x: 0, y: 0}
      m_Rotation: 0
      m_Anchor: 9
    m_Material: {fileID: 0}
    m_SubmeshIndex: 0
    m_ManualUV: 0
    elementGroup: -1
    m_TextureGroup: -1
  - m_Indexes: 040000000500000006000000050000000700000006000000
    m_SmoothingGroup: 0
    m_Uv:
      m_UseWorldSpace: 0
      m_FlipU: 0
      m_FlipV: 0
      m_SwapUV: 0
      m_Fill: 1
      m_Scale: {x: 1, y: 1}
      m_Offset: {x: 0, y: 0}
      m_Rotation: 0
      m_Anchor: 9
    m_Material: {fileID: 0}
    m_SubmeshIndex: 0
    m_ManualUV: 0
    elementGroup: -1
    m_TextureGroup: -1
  - m_Indexes: 0b000000080000000a00000008000000090000000a000000
    m_SmoothingGroup: 0
    m_Uv:
      m_UseWorldSpace: 0
      m_FlipU: 0
      m_FlipV: 0
      m_SwapUV: 0
      m_Fill: 1
      m_Scale: {x: 1, y: 1}
      m_Offset: {x: 0, y: 0}
      m_Rotation: 0
      m_Anchor: 9
    m_Material: {fileID: 2100000, guid: c22777d6e868e4f2fb421913386b154e, type: 2}
    m_SubmeshIndex: 0
    m_ManualUV: 0
    elementGroup: 0
    m_TextureGroup: 1
  - m_Indexes: 0f0000000c0000000d0000000e0000000f0000000d000000
    m_SmoothingGroup: 0
    m_Uv:
      m_UseWorldSpace: 0
      m_FlipU: 0
      m_FlipV: 0
      m_SwapUV: 0
      m_Fill: 1
      m_Scale: {x: 1, y: 1}
      m_Offset: {x: 0, y: 0}
      m_Rotation: 0
      m_Anchor: 9
    m_Material: {fileID: 2100000, guid: c22777d6e868e4f2fb421913386b154e, type: 2}
    m_SubmeshIndex: 0
    m_ManualUV: 0
    elementGroup: 0
    m_TextureGroup: 2
  - m_Indexes: 110000001200000013000000110000001300000010000000
    m_SmoothingGroup: 0
    m_Uv:
      m_UseWorldSpace: 0
      m_FlipU: 0
      m_FlipV: 0
      m_SwapUV: 0
      m_Fill: 1
      m_Scale: {x: 1, y: 1}
      m_Offset: {x: 0, y: 0}
      m_Rotation: 0
      m_Anchor: 9
    m_Material: {fileID: 2100000, guid: c22777d6e868e4f2fb421913386b154e, type: 2}
    m_SubmeshIndex: 0
    m_ManualUV: 0
    elementGroup: 0
    m_TextureGroup: -1
  - m_Indexes: 160000001400000015000000160000001700000014000000
    m_SmoothingGroup: 0
    m_Uv:
      m_UseWorldSpace: 0
      m_FlipU: 0
      m_FlipV: 0
      m_SwapUV: 0
      m_Fill: 1
      m_Scale: {x: 1, y: 1}
      m_Offset: {x: 0, y: 0}
      m_Rotation: 0
      m_Anchor: 9
    m_Material: {fileID: 2100000, guid: c22777d6e868e4f2fb421913386b154e, type: 2}
    m_SubmeshIndex: 0
    m_ManualUV: 0
    elementGroup: 0
    m_TextureGroup: 4
  - m_Indexes: 190000001a000000180000001a0000001b00000018000000
    m_SmoothingGroup: 0
    m_Uv:
      m_UseWorldSpace: 0
      m_FlipU: 0
      m_FlipV: 0
      m_SwapUV: 0
      m_Fill: 1
      m_Scale: {x: 1, y: 1}
      m_Offset: {x: 0, y: 0}
      m_Rotation: 0
      m_Anchor: 9
    m_Material: {fileID: 2100000, guid: c22777d6e868e4f2fb421913386b154e, type: 2}
    m_SubmeshIndex: 0
    m_ManualUV: 0
    elementGroup: 0
    m_TextureGroup: 5
  - m_Indexes: 1c0000001d0000001f0000001d0000001e0000001f000000
    m_SmoothingGroup: 0
    m_Uv:
      m_UseWorldSpace: 0
      m_FlipU: 0
      m_FlipV: 0
      m_SwapUV: 0
      m_Fill: 1
      m_Scale: {x: 1, y: 1}
      m_Offset: {x: 0, y: 0}
      m_Rotation: 0
      m_Anchor: 9
    m_Material: {fileID: 2100000, guid: c22777d6e868e4f2fb421913386b154e, type: 2}
    m_SubmeshIndex: 0
    m_ManualUV: 0
    elementGroup: 0
    m_TextureGroup: 5
  - m_Indexes: 210000002200000023000000200000002100000023000000
    m_SmoothingGroup: 0
    m_Uv:
      m_UseWorldSpace: 0
      m_FlipU: 0
      m_FlipV: 0
      m_SwapUV: 0
      m_Fill: 1
      m_Scale: {x: 1, y: 1}
      m_Offset: {x: 0, y: 0}
      m_Rotation: 0
      m_Anchor: 9
    m_Material: {fileID: 2100000, guid: c22777d6e868e4f2fb421913386b154e, type: 2}
    m_SubmeshIndex: 0
    m_ManualUV: 0
    elementGroup: 0
    m_TextureGroup: 6
  - m_Indexes: 240000002500000026000000270000002400000026000000
    m_SmoothingGroup: 0
    m_Uv:
      m_UseWorldSpace: 0
      m_FlipU: 0
      m_FlipV: 0
      m_SwapUV: 0
      m_Fill: 1
      m_Scale: {x: 1, y: 1}
      m_Offset: {x: 0, y: 0}
      m_Rotation: 0
      m_Anchor: 9
    m_Material: {fileID: 2100000, guid: c22777d6e868e4f2fb421913386b154e, type: 2}
    m_SubmeshIndex: 0
    m_ManualUV: 0
    elementGroup: 0
    m_TextureGroup: -1
  - m_Indexes: 28000000290000002a000000280000002a0000002b000000
    m_SmoothingGroup: 0
    m_Uv:
      m_UseWorldSpace: 0
      m_FlipU: 0
      m_FlipV: 0
      m_SwapUV: 0
      m_Fill: 1
      m_Scale: {x: 1, y: 1}
      m_Offset: {x: 0, y: 0}
      m_Rotation: 0
      m_Anchor: 9
    m_Material: {fileID: 2100000, guid: c22777d6e868e4f2fb421913386b154e, type: 2}
    m_SubmeshIndex: 0
    m_ManualUV: 0
    elementGroup: 0
    m_TextureGroup: 7
  - m_Indexes: 2f0000002c0000002d0000002f0000002d0000002e000000
    m_SmoothingGroup: 0
    m_Uv:
      m_UseWorldSpace: 0
      m_FlipU: 0
      m_FlipV: 0
      m_SwapUV: 0
      m_Fill: 1
      m_Scale: {x: 1, y: 1}
      m_Offset: {x: 0, y: 0}
      m_Rotation: 0
      m_Anchor: 9
    m_Material: {fileID: 2100000, guid: c22777d6e868e4f2fb421913386b154e, type: 2}
    m_SubmeshIndex: 0
    m_ManualUV: 0
    elementGroup: 0
    m_TextureGroup: 7
  - m_Indexes: 320000003000000031000000320000003300000030000000
    m_SmoothingGroup: 0
    m_Uv:
      m_UseWorldSpace: 0
      m_FlipU: 0
      m_FlipV: 0
      m_SwapUV: 0
      m_Fill: 1
      m_Scale: {x: 1, y: 1}
      m_Offset: {x: 0, y: 0}
      m_Rotation: 0
      m_Anchor: 9
    m_Material: {fileID: 2100000, guid: c22777d6e868e4f2fb421913386b154e, type: 2}
    m_SubmeshIndex: 0
    m_ManualUV: 0
    elementGroup: 0
    m_TextureGroup: 8
  - m_Indexes: 350000003700000034000000350000003600000037000000
    m_SmoothingGroup: 0
    m_Uv:
      m_UseWorldSpace: 0
      m_FlipU: 0
      m_FlipV: 0
      m_SwapUV: 0
      m_Fill: 1
      m_Scale: {x: 1, y: 1}
      m_Offset: {x: 0, y: 0}
      m_Rotation: 0
      m_Anchor: 9
    m_Material: {fileID: 2100000, guid: c22777d6e868e4f2fb421913386b154e, type: 2}
    m_SubmeshIndex: 0
    m_ManualUV: 0
    elementGroup: 0
    m_TextureGroup: -1
  - m_Indexes: 38000000390000003a000000390000003b0000003a000000
    m_SmoothingGroup: 0
    m_Uv:
      m_UseWorldSpace: 0
      m_FlipU: 0
      m_FlipV: 0
      m_SwapUV: 0
      m_Fill: 1
      m_Scale: {x: 1, y: 1}
      m_Offset: {x: 0, y: 0}
      m_Rotation: 0
      m_Anchor: 9
    m_Material: {fileID: 0}
    m_SubmeshIndex: 0
    m_ManualUV: 0
    elementGroup: -1
    m_TextureGroup: -1
  - m_Indexes: 3c0000003d0000003e0000003d0000003f0000003e000000
    m_SmoothingGroup: 0
    m_Uv:
      m_UseWorldSpace: 0
      m_FlipU: 0
      m_FlipV: 0
      m_SwapUV: 0
      m_Fill: 1
      m_Scale: {x: 1, y: 1}
      m_Offset: {x: 0, y: 0}
      m_Rotation: 0
      m_Anchor: 9
    m_Material: {fileID: 0}
    m_SubmeshIndex: 0
    m_ManualUV: 0
    elementGroup: -1
    m_TextureGroup: -1
  - m_Indexes: 400000004100000042000000410000004300000042000000
    m_SmoothingGroup: 0
    m_Uv:
      m_UseWorldSpace: 0
      m_FlipU: 0
      m_FlipV: 0
      m_SwapUV: 0
      m_Fill: 1
      m_Scale: {x: 1, y: 1}
      m_Offset: {x: 0, y: 0}
      m_Rotation: 0
      m_Anchor: 9
    m_Material: {fileID: 0}
    m_SubmeshIndex: 0
    m_ManualUV: 0
    elementGroup: -1
    m_TextureGroup: -1
  - m_Indexes: 440000004500000046000000450000004700000046000000
    m_SmoothingGroup: 0
    m_Uv:
      m_UseWorldSpace: 0
      m_FlipU: 0
      m_FlipV: 0
      m_SwapUV: 0
      m_Fill: 1
      m_Scale: {x: 1, y: 1}
      m_Offset: {x: 0, y: 0}
      m_Rotation: 0
      m_Anchor: 9
    m_Material: {fileID: 0}
    m_SubmeshIndex: 0
    m_ManualUV: 0
    elementGroup: -1
    m_TextureGroup: -1
  - m_Indexes: 48000000490000004a000000490000004b0000004a000000
    m_SmoothingGroup: 0
    m_Uv:
      m_UseWorldSpace: 0
      m_FlipU: 0
      m_FlipV: 0
      m_SwapUV: 0
      m_Fill: 1
      m_Scale: {x: 1, y: 1}
      m_Offset: {x: 0, y: 0}
      m_Rotation: 0
      m_Anchor: 9
    m_Material: {fileID: 0}
    m_SubmeshIndex: 0
    m_ManualUV: 0
    elementGroup: -1
    m_TextureGroup: -1
  - m_Indexes: 4c0000004d0000004e0000004d0000004f0000004e000000
    m_SmoothingGroup: 0
    m_Uv:
      m_UseWorldSpace: 0
      m_FlipU: 0
      m_FlipV: 0
      m_SwapUV: 0
      m_Fill: 1
      m_Scale: {x: 1, y: 1}
      m_Offset: {x: 0, y: 0}
      m_Rotation: 0
      m_Anchor: 9
    m_Material: {fileID: 0}
    m_SubmeshIndex: 0
    m_ManualUV: 0
    elementGroup: -1
    m_TextureGroup: -1
  - m_Indexes: 500000005100000052000000510000005300000052000000
    m_SmoothingGroup: 0
    m_Uv:
      m_UseWorldSpace: 0
      m_FlipU: 0
      m_FlipV: 0
      m_SwapUV: 0
      m_Fill: 1
      m_Scale: {x: 1, y: 1}
      m_Offset: {x: 0, y: 0}
      m_Rotation: 0
      m_Anchor: 9
    m_Material: {fileID: 0}
    m_SubmeshIndex: 0
    m_ManualUV: 0
    elementGroup: -1
    m_TextureGroup: -1
  - m_Indexes: 540000005500000056000000550000005700000056000000
    m_SmoothingGroup: 0
    m_Uv:
      m_UseWorldSpace: 0
      m_FlipU: 0
      m_FlipV: 0
      m_SwapUV: 0
      m_Fill: 1
      m_Scale: {x: 1, y: 1}
      m_Offset: {x: 0, y: 0}
      m_Rotation: 0
      m_Anchor: 9
    m_Material: {fileID: 0}
    m_SubmeshIndex: 0
    m_ManualUV: 0
    elementGroup: -1
    m_TextureGroup: -1
  - m_Indexes: 58000000590000005a0000005b000000580000005a000000
    m_SmoothingGroup: 0
    m_Uv:
      m_UseWorldSpace: 0
      m_FlipU: 0
      m_FlipV: 0
      m_SwapUV: 0
      m_Fill: 1
      m_Scale: {x: 1, y: 1}
      m_Offset: {x: 0, y: 0}
      m_Rotation: 0
      m_Anchor: 9
    m_Material: {fileID: 2100000, guid: c22777d6e868e4f2fb421913386b154e, type: 2}
    m_SubmeshIndex: 0
    m_ManualUV: 0
    elementGroup: 0
    m_TextureGroup: 1
  - m_Indexes: 5c0000005d0000005e0000005f0000005c0000005e000000
    m_SmoothingGroup: 0
    m_Uv:
      m_UseWorldSpace: 0
      m_FlipU: 0
      m_FlipV: 0
      m_SwapUV: 0
      m_Fill: 1
      m_Scale: {x: 1, y: 1}
      m_Offset: {x: 0, y: 0}
      m_Rotation: 0
      m_Anchor: 9
    m_Material: {fileID: 2100000, guid: c22777d6e868e4f2fb421913386b154e, type: 2}
    m_SubmeshIndex: 0
    m_ManualUV: 0
    elementGroup: 0
    m_TextureGroup: 2
  - m_Indexes: 600000006200000063000000600000006100000062000000
    m_SmoothingGroup: 0
    m_Uv:
      m_UseWorldSpace: 0
      m_FlipU: 0
      m_FlipV: 0
      m_SwapUV: 0
      m_Fill: 1
      m_Scale: {x: 1, y: 1}
      m_Offset: {x: 0, y: 0}
      m_Rotation: 0
      m_Anchor: 9
    m_Material: {fileID: 2100000, guid: c22777d6e868e4f2fb421913386b154e, type: 2}
    m_SubmeshIndex: 0
    m_ManualUV: 0
    elementGroup: 0
    m_TextureGroup: 3
  - m_Indexes: 660000006400000065000000660000006700000064000000
    m_SmoothingGroup: 0
    m_Uv:
      m_UseWorldSpace: 0
      m_FlipU: 0
      m_FlipV: 0
      m_SwapUV: 0
      m_Fill: 1
      m_Scale: {x: 1, y: 1}
      m_Offset: {x: 0, y: 0}
      m_Rotation: 0
      m_Anchor: 9
    m_Material: {fileID: 2100000, guid: c22777d6e868e4f2fb421913386b154e, type: 2}
    m_SubmeshIndex: 0
    m_ManualUV: 0
    elementGroup: 0
    m_TextureGroup: 4
  - m_Indexes: 68000000690000006b000000690000006a0000006b000000
    m_SmoothingGroup: 0
    m_Uv:
      m_UseWorldSpace: 0
      m_FlipU: 0
      m_FlipV: 0
      m_SwapUV: 0
      m_Fill: 1
      m_Scale: {x: 1, y: 1}
      m_Offset: {x: 0, y: 0}
      m_Rotation: 0
      m_Anchor: 9
    m_Material: {fileID: 2100000, guid: c22777d6e868e4f2fb421913386b154e, type: 2}
    m_SubmeshIndex: 0
    m_ManualUV: 0
    elementGroup: 0
    m_TextureGroup: 1
  - m_Indexes: 6f0000006c0000006e0000006c0000006d0000006e000000
    m_SmoothingGroup: 0
    m_Uv:
      m_UseWorldSpace: 0
      m_FlipU: 0
      m_FlipV: 0
      m_SwapUV: 0
      m_Fill: 1
      m_Scale: {x: 1, y: 1}
      m_Offset: {x: 0, y: 0}
      m_Rotation: 0
      m_Anchor: 9
    m_Material: {fileID: 2100000, guid: c22777d6e868e4f2fb421913386b154e, type: 2}
    m_SubmeshIndex: 0
    m_ManualUV: 0
    elementGroup: 0
    m_TextureGroup: 1
  - m_Indexes: 700000007100000073000000710000007200000073000000
    m_SmoothingGroup: 0
    m_Uv:
      m_UseWorldSpace: 0
      m_FlipU: 0
      m_FlipV: 0
      m_SwapUV: 0
      m_Fill: 1
      m_Scale: {x: 1, y: 1}
      m_Offset: {x: 0, y: 0}
      m_Rotation: 0
      m_Anchor: 9
    m_Material: {fileID: 2100000, guid: c22777d6e868e4f2fb421913386b154e, type: 2}
    m_SubmeshIndex: 0
    m_ManualUV: 0
    elementGroup: 0
    m_TextureGroup: -1
  - m_Indexes: 770000007400000076000000740000007500000076000000
    m_SmoothingGroup: 0
    m_Uv:
      m_UseWorldSpace: 0
      m_FlipU: 0
      m_FlipV: 0
      m_SwapUV: 0
      m_Fill: 1
      m_Scale: {x: 1, y: 1}
      m_Offset: {x: 0, y: 0}
      m_Rotation: 0
      m_Anchor: 9
    m_Material: {fileID: 2100000, guid: c22777d6e868e4f2fb421913386b154e, type: 2}
    m_SubmeshIndex: 0
    m_ManualUV: 0
    elementGroup: 0
    m_TextureGroup: 2
  - m_Indexes: 790000007a0000007b000000790000007b00000078000000
    m_SmoothingGroup: 0
    m_Uv:
      m_UseWorldSpace: 0
      m_FlipU: 0
      m_FlipV: 0
      m_SwapUV: 0
      m_Fill: 1
      m_Scale: {x: 1, y: 1}
      m_Offset: {x: 0, y: 0}
      m_Rotation: 0
      m_Anchor: 9
    m_Material: {fileID: 2100000, guid: c22777d6e868e4f2fb421913386b154e, type: 2}
    m_SubmeshIndex: 0
    m_ManualUV: 0
    elementGroup: 0
    m_TextureGroup: 3
  - m_Indexes: 7d0000007e0000007f0000007d0000007f0000007c000000
    m_SmoothingGroup: 0
    m_Uv:
      m_UseWorldSpace: 0
      m_FlipU: 0
      m_FlipV: 0
      m_SwapUV: 0
      m_Fill: 1
      m_Scale: {x: 1, y: 1}
      m_Offset: {x: 0, y: 0}
      m_Rotation: 0
      m_Anchor: 9
    m_Material: {fileID: 2100000, guid: c22777d6e868e4f2fb421913386b154e, type: 2}
    m_SubmeshIndex: 0
    m_ManualUV: 0
    elementGroup: 0
    m_TextureGroup: 3
  - m_Indexes: 810000008200000083000000810000008300000080000000
    m_SmoothingGroup: 0
    m_Uv:
      m_UseWorldSpace: 0
      m_FlipU: 0
      m_FlipV: 0
      m_SwapUV: 0
      m_Fill: 1
      m_Scale: {x: 1, y: 1}
      m_Offset: {x: 0, y: 0}
      m_Rotation: 0
      m_Anchor: 9
    m_Material: {fileID: 2100000, guid: c22777d6e868e4f2fb421913386b154e, type: 2}
    m_SubmeshIndex: 0
    m_ManualUV: 0
    elementGroup: 0
    m_TextureGroup: -1
  - m_Indexes: 850000008600000087000000850000008700000084000000
    m_SmoothingGroup: 0
    m_Uv:
      m_UseWorldSpace: 0
      m_FlipU: 0
      m_FlipV: 0
      m_SwapUV: 0
      m_Fill: 1
      m_Scale: {x: 1, y: 1}
      m_Offset: {x: 0, y: 0}
      m_Rotation: 0
      m_Anchor: 9
    m_Material: {fileID: 2100000, guid: c22777d6e868e4f2fb421913386b154e, type: 2}
    m_SubmeshIndex: 0
    m_ManualUV: 0
    elementGroup: 0
    m_TextureGroup: 4
  - m_Indexes: 88000000890000008a000000890000008b0000008a000000
    m_SmoothingGroup: 0
    m_Uv:
      m_UseWorldSpace: 0
      m_FlipU: 0
      m_FlipV: 0
      m_SwapUV: 0
      m_Fill: 1
      m_Scale: {x: 1, y: 1}
      m_Offset: {x: 0, y: 0}
      m_Rotation: 0
      m_Anchor: 9
    m_Material: {fileID: 0}
    m_SubmeshIndex: 0
    m_ManualUV: 0
    elementGroup: -1
    m_TextureGroup: -1
  - m_Indexes: 8c0000008d0000008e0000008d0000008f0000008e000000
    m_SmoothingGroup: 0
    m_Uv:
      m_UseWorldSpace: 0
      m_FlipU: 0
      m_FlipV: 0
      m_SwapUV: 0
      m_Fill: 1
      m_Scale: {x: 1, y: 1}
      m_Offset: {x: 0, y: 0}
      m_Rotation: 0
      m_Anchor: 9
    m_Material: {fileID: 0}
    m_SubmeshIndex: 0
    m_ManualUV: 0
    elementGroup: -1
    m_TextureGroup: -1
  - m_Indexes: 900000009100000092000000910000009300000092000000
    m_SmoothingGroup: 0
    m_Uv:
      m_UseWorldSpace: 0
      m_FlipU: 0
      m_FlipV: 0
      m_SwapUV: 0
      m_Fill: 1
      m_Scale: {x: 1, y: 1}
      m_Offset: {x: 0, y: 0}
      m_Rotation: 0
      m_Anchor: 9
    m_Material: {fileID: 0}
    m_SubmeshIndex: 0
    m_ManualUV: 0
    elementGroup: -1
    m_TextureGroup: -1
  - m_Indexes: 940000009500000096000000950000009700000096000000
    m_SmoothingGroup: 0
    m_Uv:
      m_UseWorldSpace: 0
      m_FlipU: 0
      m_FlipV: 0
      m_SwapUV: 0
      m_Fill: 1
      m_Scale: {x: 1, y: 1}
      m_Offset: {x: 0, y: 0}
      m_Rotation: 0
      m_Anchor: 9
    m_Material: {fileID: 0}
    m_SubmeshIndex: 0
    m_ManualUV: 0
    elementGroup: -1
    m_TextureGroup: -1
  - m_Indexes: 98000000990000009a000000990000009b0000009a000000
    m_SmoothingGroup: 0
    m_Uv:
      m_UseWorldSpace: 0
      m_FlipU: 0
      m_FlipV: 0
      m_SwapUV: 0
      m_Fill: 1
      m_Scale: {x: 1, y: 1}
      m_Offset: {x: 0, y: 0}
      m_Rotation: 0
      m_Anchor: 9
    m_Material: {fileID: 0}
    m_SubmeshIndex: 0
    m_ManualUV: 0
    elementGroup: -1
    m_TextureGroup: -1
  - m_Indexes: 9c0000009d0000009e0000009d0000009f0000009e000000
    m_SmoothingGroup: 0
    m_Uv:
      m_UseWorldSpace: 0
      m_FlipU: 0
      m_FlipV: 0
      m_SwapUV: 0
      m_Fill: 1
      m_Scale: {x: 1, y: 1}
      m_Offset: {x: 0, y: 0}
      m_Rotation: 0
      m_Anchor: 9
    m_Material: {fileID: 0}
    m_SubmeshIndex: 0
    m_ManualUV: 0
    elementGroup: -1
    m_TextureGroup: -1
  - m_Indexes: a0000000a1000000a2000000a1000000a3000000a2000000
    m_SmoothingGroup: 0
    m_Uv:
      m_UseWorldSpace: 0
      m_FlipU: 0
      m_FlipV: 0
      m_SwapUV: 0
      m_Fill: 1
      m_Scale: {x: 1, y: 1}
      m_Offset: {x: 0, y: 0}
      m_Rotation: 0
      m_Anchor: 9
    m_Material: {fileID: 0}
    m_SubmeshIndex: 0
    m_ManualUV: 0
    elementGroup: -1
    m_TextureGroup: -1
  - m_Indexes: a4000000a5000000a6000000a5000000a7000000a6000000
    m_SmoothingGroup: 0
    m_Uv:
      m_UseWorldSpace: 0
      m_FlipU: 0
      m_FlipV: 0
      m_SwapUV: 0
      m_Fill: 1
      m_Scale: {x: 1, y: 1}
      m_Offset: {x: 0, y: 0}
      m_Rotation: 0
      m_Anchor: 9
    m_Material: {fileID: 0}
    m_SubmeshIndex: 0
    m_ManualUV: 0
    elementGroup: -1
    m_TextureGroup: -1
  m_SharedVertices:
  - m_Vertices: 000000000a00000015000000
  - m_Vertices: 01000000090000000e000000
  - m_Vertices: 02000000160000001800000031000000
  - m_Vertices: 030000000d0000001900000020000000
  - m_Vertices: 040000006200000067000000
  - m_Vertices: 050000005d00000061000000
  - m_Vertices: 060000005800000064000000
  - m_Vertices: 07000000590000005c000000
  - m_Vertices: 080000000f0000006d00000076000000
  - m_Vertices: 0b000000140000006e00000085000000
  - m_Vertices: 0c0000002100000028000000750000007e000000
  - m_Vertices: 100000002d0000004100000044000000
  - m_Vertices: 110000001e0000003d00000040000000
  - m_Vertices: 120000001d0000004d00000054000000
  - m_Vertices: 130000002e000000490000004c000000
  - m_Vertices: 1700000029000000300000007d00000086000000
  - m_Vertices: 1a0000001c000000230000005000000055000000
  - m_Vertices: 1b0000001f00000032000000390000003c000000
  - m_Vertices: 220000002b0000002f0000004800000051000000
  - m_Vertices: 240000004a00000053000000
  - m_Vertices: 250000004b0000004e000000
  - m_Vertices: 260000004f00000056000000
  - m_Vertices: 270000005200000057000000
  - m_Vertices: 2a0000002c000000330000003800000045000000
  - m_Vertices: 340000003b0000003e000000
  - m_Vertices: 350000003f00000042000000
  - m_Vertices: 360000004300000046000000
  - m_Vertices: 370000003a00000047000000
  - m_Vertices: 5a0000005f00000069000000980000009d000000
  - m_Vertices: 700000009a0000009f000000
  - m_Vertices: 5b00000065000000680000009100000094000000
  - m_Vertices: 800000009300000096000000
  - m_Vertices: 5e000000600000007b00000099000000a0000000
  - m_Vertices: 710000009b000000a2000000
  - m_Vertices: 6300000066000000780000008d00000090000000
  - m_Vertices: 830000008f00000092000000
  - m_Vertices: 6a0000006c000000770000009c000000a5000000
  - m_Vertices: 730000009e000000a7000000
  - m_Vertices: 6b0000006f000000840000008800000095000000
  - m_Vertices: 810000008a00000097000000
  - m_Vertices: 72000000a3000000a6000000
  - m_Vertices: 740000007a0000007f000000a1000000a4000000
  - m_Vertices: 790000007c00000087000000890000008c000000
  - m_Vertices: 820000008b0000008e000000
  m_SharedTextures: []
  m_Positions:
  - {x: -0.023715258, y: 1, z: 1}
  - {x: 0.021213055, y: 1, z: 1}
  - {x: -0.023715258, y: 1, z: 0.9457327}
  - {x: 0.021213055, y: 1, z: 0.9457327}
  - {x: -0.023715258, y: -1, z: 0.9457327}
  - {x: 0.021213055, y: -1, z: 0.9457327}
  - {x: -0.023715258, y: -1, z: 1}
  - {x: 0.021213055, y: -1, z: 1}
  - {x: 0.021213055, y: 0.94567186, z: 1}
  - {x: 0.021213055, y: 1, z: 1}
  - {x: -0.023715258, y: 1, z: 1}
  - {x: -0.023715273, y: 0.94567186, z: 1}
  - {x: 0.021213055, y: 0.94567186, z: 0.9457327}
  - {x: 0.021213055, y: 1, z: 0.9457327}
  - {x: 0.021213055, y: 1, z: 1}
  - {x: 0.021213055, y: 0.94567186, z: 1}
  - {x: -0.023715273, y: 0.94567186, z: 0.39660358}
  - {x: -0.023715273, y: 1, z: 0.39660358}
  - {x: 0.021213055, y: 1, z: 0.39660358}
  - {x: 0.021213055, y: 0.94567186, z: 0.39660358}
  - {x: -0.023715273, y: 0.94567186, z: 1}
  - {x: -0.023715258, y: 1, z: 1}
  - {x: -0.023715258, y: 1, z: 0.9457327}
  - {x: -0.023715273, y: 0.94567186, z: 0.9457327}
  - {x: -0.023715258, y: 1, z: 0.9457327}
  - {x: 0.021213055, y: 1, z: 0.9457327}
  - {x: 0.021213055, y: 1, z: 0.74893826}
  - {x: -0.023715273, y: 1, z: 0.74893826}
  - {x: 0.021213055, y: 1, z: 0.74893826}
  - {x: 0.021213055, y: 1, z: 0.39660358}
  - {x: -0.023715273, y: 1, z: 0.39660358}
  - {x: -0.023715273, y: 1, z: 0.74893826}
  - {x: 0.021213055, y: 1, z: 0.9457327}
  - {x: 0.021213055, y: 0.94567186, z: 0.9457327}
  - {x: 0.021213055, y: 0.94567186, z: 0.74893826}
  - {x: 0.021213055, y: 1, z: 0.74893826}
  - {x: 0.22695532, y: 0.94567186, z: 0.74893826}
  - {x: 0.22695532, y: 0.94567186, z: 0.39660358}
  - {x: 0.22695532, y: 1, z: 0.39660358}
  - {x: 0.22695532, y: 1, z: 0.74893826}
  - {x: 0.021213055, y: 0.94567186, z: 0.9457327}
  - {x: -0.023715273, y: 0.94567186, z: 0.9457327}
  - {x: -0.023715273, y: 0.94567186, z: 0.74893826}
  - {x: 0.021213055, y: 0.94567186, z: 0.74893826}
  - {x: -0.023715273, y: 0.94567186, z: 0.74893826}
  - {x: -0.023715273, y: 0.94567186, z: 0.39660358}
  - {x: 0.021213055, y: 0.94567186, z: 0.39660358}
  - {x: 0.021213055, y: 0.94567186, z: 0.74893826}
  - {x: -0.023715273, y: 0.94567186, z: 0.9457327}
  - {x: -0.023715258, y: 1, z: 0.9457327}
  - {x: -0.023715273, y: 1, z: 0.74893826}
  - {x: -0.023715273, y: 0.94567186, z: 0.74893826}
  - {x: -0.22281428, y: 1, z: 0.74893826}
  - {x: -0.22281428, y: 1, z: 0.39660358}
  - {x: -0.22281428, y: 0.94567186, z: 0.39660358}
  - {x: -0.22281428, y: 0.94567186, z: 0.74893826}
  - {x: -0.023715273, y: 0.94567186, z: 0.74893826}
  - {x: -0.023715273, y: 1, z: 0.74893826}
  - {x: -0.22281428, y: 0.94567186, z: 0.74893826}
  - {x: -0.22281428, y: 1, z: 0.74893826}
  - {x: -0.023715273, y: 1, z: 0.74893826}
  - {x: -0.023715273, y: 1, z: 0.39660358}
  - {x: -0.22281428, y: 1, z: 0.74893826}
  - {x: -0.22281428, y: 1, z: 0.39660358}
  - {x: -0.023715273, y: 1, z: 0.39660358}
  - {x: -0.023715273, y: 0.94567186, z: 0.39660358}
  - {x: -0.22281428, y: 1, z: 0.39660358}
  - {x: -0.22281428, y: 0.94567186, z: 0.39660358}
  - {x: -0.023715273, y: 0.94567186, z: 0.39660358}
  - {x: -0.023715273, y: 0.94567186, z: 0.74893826}
  - {x: -0.22281428, y: 0.94567186, z: 0.39660358}
  - {x: -0.22281428, y: 0.94567186, z: 0.74893826}
  - {x: 0.021213055, y: 0.94567186, z: 0.74893826}
  - {x: 0.021213055, y: 0.94567186, z: 0.39660358}
  - {x: 0.22695532, y: 0.94567186, z: 0.74893826}
  - {x: 0.22695532, y: 0.94567186, z: 0.39660358}
  - {x: 0.021213055, y: 0.94567186, z: 0.39660358}
  - {x: 0.021213055, y: 1, z: 0.39660358}
  - {x: 0.22695532, y: 0.94567186, z: 0.39660358}
  - {x: 0.22695532, y: 1, z: 0.39660358}
  - {x: 0.021213055, y: 1, z: 0.74893826}
  - {x: 0.021213055, y: 0.94567186, z: 0.74893826}
  - {x: 0.22695532, y: 1, z: 0.74893826}
  - {x: 0.22695532, y: 0.94567186, z: 0.74893826}
  - {x: 0.021213055, y: 1, z: 0.39660358}
  - {x: 0.021213055, y: 1, z: 0.74893826}
  - {x: 0.22695532, y: 1, z: 0.39660358}
  - {x: 0.22695532, y: 1, z: 0.74893826}
  - {x: -0.023715258, y: -1, z: 1}
  - {x: 0.021213055, y: -1, z: 1}
  - {x: 0.021213055, y: -0.019699216, z: 1}
  - {x: -0.023715273, y: -0.019699216, z: 1}
  - {x: 0.021213055, y: -1, z: 1}
  - {x: 0.021213055, y: -1, z: 0.9457327}
  - {x: 0.021213055, y: -0.019699216, z: 0.9457327}
  - {x: 0.021213055, y: -0.019699216, z: 1}
  - {x: 0.021213055, y: -0.019699216, z: 0.9457327}
  - {x: 0.021213055, y: -1, z: 0.9457327}
  - {x: -0.023715258, y: -1, z: 0.9457327}
  - {x: -0.023715273, y: -0.019699216, z: 0.9457327}
  - {x: -0.023715258, y: -1, z: 1}
  - {x: -0.023715273, y: -0.019699216, z: 1}
  - {x: -0.023715273, y: -0.019699216, z: 0.9457327}
  - {x: -0.023715258, y: -1, z: 0.9457327}
  - {x: -0.023715273, y: -0.019699216, z: 1}
  - {x: 0.021213055, y: -0.019699216, z: 1}
  - {x: 0.021213055, y: 0.021337539, z: 1}
  - {x: -0.023715273, y: 0.021337539, z: 1}
  - {x: 0.021213055, y: 0.021337539, z: 1}
  - {x: 0.021213055, y: 0.94567186, z: 1}
  - {x: -0.023715273, y: 0.94567186, z: 1}
  - {x: -0.023715273, y: 0.021337539, z: 1}
  - {x: 0.24767582, y: -0.019699216, z: 1}
  - {x: 0.24767582, y: -0.019699216, z: 0.9457327}
  - {x: 0.24767582, y: 0.021337539, z: 0.9457327}
  - {x: 0.24767582, y: 0.021337539, z: 1}
  - {x: 0.021213055, y: 0.021337539, z: 0.9457327}
  - {x: 0.021213055, y: 0.94567186, z: 0.9457327}
  - {x: 0.021213055, y: 0.94567186, z: 1}
  - {x: 0.021213055, y: 0.021337539, z: 1}
  - {x: -0.023715273, y: -0.019699216, z: 0.9457327}
  - {x: -0.023715273, y: 0.021337539, z: 0.9457327}
  - {x: 0.021213055, y: 0.021337539, z: 0.9457327}
  - {x: 0.021213055, y: -0.019699216, z: 0.9457327}
  - {x: -0.023715273, y: 0.021337539, z: 0.9457327}
  - {x: -0.023715273, y: 0.94567186, z: 0.9457327}
  - {x: 0.021213055, y: 0.94567186, z: 0.9457327}
  - {x: 0.021213055, y: 0.021337539, z: 0.9457327}
  - {x: -0.24633472, y: -0.019699216, z: 1}
  - {x: -0.24633472, y: 0.021337539, z: 1}
  - {x: -0.24633472, y: 0.021337539, z: 0.9457327}
  - {x: -0.24633472, y: -0.019699216, z: 0.9457327}
  - {x: -0.023715273, y: 0.021337539, z: 1}
  - {x: -0.023715273, y: 0.94567186, z: 1}
  - {x: -0.023715273, y: 0.94567186, z: 0.9457327}
  - {x: -0.023715273, y: 0.021337539, z: 0.9457327}
  - {x: -0.023715273, y: 0.021337539, z: 1}
  - {x: -0.023715273, y: 0.021337539, z: 0.9457327}
  - {x: -0.24633472, y: 0.021337539, z: 1}
  - {x: -0.24633472, y: 0.021337539, z: 0.9457327}
  - {x: -0.023715273, y: 0.021337539, z: 0.9457327}
  - {x: -0.023715273, y: -0.019699216, z: 0.9457327}
  - {x: -0.24633472, y: 0.021337539, z: 0.9457327}
  - {x: -0.24633472, y: -0.019699216, z: 0.9457327}
  - {x: -0.023715273, y: -0.019699216, z: 0.9457327}
  - {x: -0.023715273, y: -0.019699216, z: 1}
  - {x: -0.24633472, y: -0.019699216, z: 0.9457327}
  - {x: -0.24633472, y: -0.019699216, z: 1}
  - {x: -0.023715273, y: -0.019699216, z: 1}
  - {x: -0.023715273, y: 0.021337539, z: 1}
  - {x: -0.24633472, y: -0.019699216, z: 1}
  - {x: -0.24633472, y: 0.021337539, z: 1}
  - {x: 0.021213055, y: -0.019699216, z: 1}
  - {x: 0.021213055, y: -0.019699216, z: 0.9457327}
  - {x: 0.24767582, y: -0.019699216, z: 1}
  - {x: 0.24767582, y: -0.019699216, z: 0.9457327}
  - {x: 0.021213055, y: 0.021337539, z: 1}
  - {x: 0.021213055, y: -0.019699216, z: 1}
  - {x: 0.24767582, y: 0.021337539, z: 1}
  - {x: 0.24767582, y: -0.019699216, z: 1}
  - {x: 0.021213055, y: -0.019699216, z: 0.9457327}
  - {x: 0.021213055, y: 0.021337539, z: 0.9457327}
  - {x: 0.24767582, y: -0.019699216, z: 0.9457327}
  - {x: 0.24767582, y: 0.021337539, z: 0.9457327}
  - {x: 0.021213055, y: 0.021337539, z: 0.9457327}
  - {x: 0.021213055, y: 0.021337539, z: 1}
  - {x: 0.24767582, y: 0.021337539, z: 0.9457327}
  - {x: 0.24767582, y: 0.021337539, z: 1}
  m_Textures0:
  - {x: -0.023715258, y: 1}
  - {x: 0.021213055, y: 1}
  - {x: -0.023715258, y: 0.9457327}
  - {x: 0.021213055, y: 0.9457327}
  - {x: 0.023715258, y: 0.9457327}
  - {x: -0.021213055, y: 0.9457327}
  - {x: 0.023715258, y: 1}
  - {x: -0.021213055, y: 1}
  - {x: -0.021213055, y: 0.94567186}
  - {x: -0.021213055, y: 1}
  - {x: 0.023715258, y: 1}
  - {x: 0.023715273, y: 0.94567186}
  - {x: 0.9457327, y: 0.94567186}
  - {x: 0.9457327, y: 1}
  - {x: 1, y: 1}
  - {x: 1, y: 0.94567186}
  - {x: -0.023715273, y: 0.94567186}
  - {x: -0.023715273, y: 1}
  - {x: 0.021213055, y: 1}
  - {x: 0.021213055, y: 0.94567186}
  - {x: -1, y: 0.94567186}
  - {x: -1, y: 1}
  - {x: -0.9457327, y: 1}
  - {x: -0.9457327, y: 0.94567186}
  - {x: -0.023715258, y: 0.9457327}
  - {x: 0.021213055, y: 0.9457327}
  - {x: 0.021213055, y: 0.74893826}
  - {x: -0.023715273, y: 0.74893826}
  - {x: 0.021213055, y: 0.74893826}
  - {x: 0.021213055, y: 0.39660358}
  - {x: -0.023715273, y: 0.39660358}
  - {x: -0.023715273, y: 0.74893826}
  - {x: 0.9457327, y: 1}
  - {x: 0.9457327, y: 0.94567186}
  - {x: 0.74893826, y: 0.94567186}
  - {x: 0.74893826, y: 1}
  - {x: 0.74893826, y: 0.94567186}
  - {x: 0.39660358, y: 0.94567186}
  - {x: 0.39660358, y: 1}
  - {x: 0.74893826, y: 1}
  - {x: -0.021213055, y: 0.9457327}
  - {x: 0.023715273, y: 0.9457327}
  - {x: 0.023715273, y: 0.74893826}
  - {x: -0.021213055, y: 0.74893826}
  - {x: 0.023715273, y: 0.74893826}
  - {x: 0.023715273, y: 0.39660358}
  - {x: -0.021213055, y: 0.39660358}
  - {x: -0.021213055, y: 0.74893826}
  - {x: -0.9457327, y: 0.94567186}
  - {x: -0.9457327, y: 1}
  - {x: -0.74893826, y: 1}
  - {x: -0.74893826, y: 0.94567186}
  - {x: -0.74893826, y: 1}
  - {x: -0.39660358, y: 1}
  - {x: -0.39660358, y: 0.94567186}
  - {x: -0.74893826, y: 0.94567186}
  - {x: 0.023715273, y: 0.94567186}
  - {x: 0.023715273, y: 1}
  - {x: 0.22281428, y: 0.94567186}
  - {x: 0.22281428, y: 1}
  - {x: -0.023715273, y: 0.74893826}
  - {x: -0.023715273, y: 0.39660358}
  - {x: -0.22281428, y: 0.74893826}
  - {x: -0.22281428, y: 0.39660358}
  - {x: -0.023715273, y: 1}
  - {x: -0.023715273, y: 0.94567186}
  - {x: -0.22281428, y: 1}
  - {x: -0.22281428, y: 0.94567186}
  - {x: 0.023715273, y: 0.39660358}
  - {x: 0.023715273, y: 0.74893826}
  - {x: 0.22281428, y: 0.39660358}
  - {x: 0.22281428, y: 0.74893826}
  - {x: -0.021213055, y: 0.74893826}
  - {x: -0.021213055, y: 0.39660358}
  - {x: -0.22695532, y: 0.74893826}
  - {x: -0.22695532, y: 0.39660358}
  - {x: 0.021213055, y: 0.94567186}
  - {x: 0.021213055, y: 1}
  - {x: 0.22695532, y: 0.94567186}
  - {x: 0.22695532, y: 1}
  - {x: -0.021213055, y: 1}
  - {x: -0.021213055, y: 0.94567186}
  - {x: -0.22695532, y: 1}
  - {x: -0.22695532, y: 0.94567186}
  - {x: 0.021213055, y: 0.39660358}
  - {x: 0.021213055, y: 0.74893826}
  - {x: 0.22695532, y: 0.39660358}
  - {x: 0.22695532, y: 0.74893826}
  - {x: 0.023715258, y: -1}
  - {x: -0.021213055, y: -1}
  - {x: -0.021213055, y: -0.019699216}
  - {x: 0.023715273, y: -0.019699216}
  - {x: 1, y: -1}
  - {x: 0.9457327, y: -1}
  - {x: 0.9457327, y: -0.019699216}
  - {x: 1, y: -0.019699216}
  - {x: 0.021213055, y: -0.019699216}
  - {x: 0.021213055, y: -1}
  - {x: -0.023715258, y: -1}
  - {x: -0.023715273, y: -0.019699216}
  - {x: -1, y: -1}
  - {x: -1, y: -0.019699218}
  - {x: -0.9457327, y: -0.019699218}
  - {x: -0.9457327, y: -1}
  - {x: 0.023715273, y: -0.019699216}
  - {x: -0.021213055, y: -0.019699216}
  - {x: -0.021213055, y: 0.021337539}
  - {x: 0.023715273, y: 0.021337539}
  - {x: -0.021213055, y: 0.021337539}
  - {x: -0.021213055, y: 0.94567186}
  - {x: 0.023715273, y: 0.94567186}
  - {x: 0.023715273, y: 0.021337539}
  - {x: 1, y: -0.019699216}
  - {x: 0.9457327, y: -0.019699216}
  - {x: 0.9457327, y: 0.021337539}
  - {x: 1, y: 0.021337539}
  - {x: 0.9457327, y: 0.021337539}
  - {x: 0.9457327, y: 0.94567186}
  - {x: 1, y: 0.94567186}
  - {x: 1, y: 0.021337539}
  - {x: -0.023715273, y: -0.019699216}
  - {x: -0.023715273, y: 0.021337539}
  - {x: 0.021213055, y: 0.021337539}
  - {x: 0.021213055, y: -0.019699216}
  - {x: -0.023715273, y: 0.021337539}
  - {x: -0.023715273, y: 0.94567186}
  - {x: 0.021213055, y: 0.94567186}
  - {x: 0.021213055, y: 0.021337539}
  - {x: -1, y: -0.019699216}
  - {x: -1, y: 0.021337539}
  - {x: -0.9457327, y: 0.021337539}
  - {x: -0.9457327, y: -0.019699216}
  - {x: -1, y: 0.021337537}
  - {x: -1, y: 0.94567186}
  - {x: -0.9457327, y: 0.94567186}
  - {x: -0.9457327, y: 0.021337537}
  - {x: -0.023715273, y: 1}
  - {x: -0.023715273, y: 0.9457327}
  - {x: -0.24633472, y: 1}
  - {x: -0.24633472, y: 0.9457327}
  - {x: -0.023715273, y: 0.021337539}
  - {x: -0.023715273, y: -0.019699216}
  - {x: -0.24633472, y: 0.021337539}
  - {x: -0.24633472, y: -0.019699216}
  - {x: 0.023715273, y: 0.9457327}
  - {x: 0.023715273, y: 1}
  - {x: 0.24633472, y: 0.9457327}
  - {x: 0.24633472, y: 1}
  - {x: 0.023715273, y: -0.019699216}
  - {x: 0.023715273, y: 0.021337539}
  - {x: 0.24633472, y: -0.019699216}
  - {x: 0.24633472, y: 0.021337539}
  - {x: -0.021213055, y: 1}
  - {x: -0.021213055, y: 0.9457327}
  - {x: -0.24767582, y: 1}
  - {x: -0.24767582, y: 0.9457327}
  - {x: -0.021213055, y: 0.021337539}
  - {x: -0.021213055, y: -0.019699216}
  - {x: -0.24767582, y: 0.021337539}
  - {x: -0.24767582, y: -0.019699216}
  - {x: 0.021213055, y: -0.019699216}
  - {x: 0.021213055, y: 0.021337539}
  - {x: 0.24767582, y: -0.019699216}
  - {x: 0.24767582, y: 0.021337539}
  - {x: 0.021213055, y: 0.9457327}
  - {x: 0.021213055, y: 1}
  - {x: 0.24767582, y: 0.9457327}
  - {x: 0.24767582, y: 1}
  m_Textures2: []
  m_Textures3: []
  m_Tangents:
  - {x: 1, y: 0, z: 0, w: -1}
  - {x: 1, y: 0, z: 0, w: -1}
  - {x: 1, y: 0, z: 0, w: -1}
  - {x: 1, y: 0, z: 0, w: -1}
  - {x: -1, y: 0, z: 0, w: -1}
  - {x: -1, y: 0, z: 0, w: -1}
  - {x: -1, y: 0, z: 0, w: -1}
  - {x: -1, y: 0, z: 0, w: -1}
  - {x: -1, y: 0, z: 0, w: -1}
  - {x: -1, y: 0, z: 0, w: -1}
  - {x: -1, y: 0, z: 0, w: -1}
  - {x: -1, y: 0, z: 0, w: -1}
  - {x: 0, y: 0, z: 1, w: -1}
  - {x: 0, y: 0, z: 1, w: -1}
  - {x: 0, y: 0, z: 1, w: -1}
  - {x: 0, y: 0, z: 1, w: -1}
  - {x: 1, y: 0, z: 0, w: -1}
  - {x: 1, y: 0, z: 0, w: -1}
  - {x: 1, y: 0, z: 0, w: -1}
  - {x: 1, y: 0, z: 0, w: -1}
  - {x: 0, y: 0, z: -1, w: -1}
  - {x: 0, y: 0, z: -1, w: -1}
  - {x: 0, y: 0, z: -1, w: -1}
  - {x: 0, y: 0, z: -1, w: -1}
  - {x: 1, y: 0, z: 0, w: -1}
  - {x: 1, y: 0, z: 0, w: -1}
  - {x: 1, y: 0, z: 0, w: -1}
  - {x: 1, y: 0, z: 0, w: -1}
  - {x: 1, y: 0, z: 0, w: -1}
  - {x: 1, y: 0, z: 0, w: -1}
  - {x: 1, y: 0, z: 0, w: -1}
  - {x: 1, y: 0, z: 0, w: -1}
  - {x: 0, y: 0, z: 1, w: -1}
  - {x: 0, y: 0, z: 1, w: -1}
  - {x: 0, y: 0, z: 1, w: -1}
  - {x: 0, y: 0, z: 1, w: -1}
  - {x: 0, y: 0, z: 1, w: -1}
  - {x: 0, y: 0, z: 1, w: -1}
  - {x: 0, y: 0, z: 1, w: -1}
  - {x: 0, y: 0, z: 1, w: -1}
  - {x: -1, y: 0, z: 0, w: -1}
  - {x: -1, y: 0, z: 0, w: -1}
  - {x: -1, y: 0, z: 0, w: -1}
  - {x: -1, y: 0, z: 0, w: -1}
  - {x: -1, y: 0, z: 0, w: -1}
  - {x: -1, y: 0, z: 0, w: -1}
  - {x: -1, y: 0, z: 0, w: -1}
  - {x: -1, y: 0, z: 0, w: -1}
  - {x: -0.00000003785971, y: 0, z: -1, w: -1}
  - {x: -0.00000007571942, y: 0, z: -1, w: -1}
  - {x: -0.00000003785971, y: 0, z: -1, w: -1}
  - {x: 0, y: 0, z: -1, w: -1}
  - {x: 0, y: 0, z: -1, w: -1}
  - {x: 0, y: 0, z: -1, w: -1}
  - {x: 0, y: 0, z: -1, w: -1}
  - {x: 0, y: 0, z: -1, w: -1}
  - {x: -1, y: 0, z: 0, w: -1}
  - {x: -1, y: 0, z: 0, w: -1}
  - {x: -1, y: 0, z: 0, w: -1}
  - {x: -1, y: 0, z: 0, w: -1}
  - {x: 1, y: 0, z: 0, w: -1}
  - {x: 1, y: 0, z: 0, w: -1}
  - {x: 1, y: 0, z: 0, w: -1}
  - {x: 1, y: 0, z: 0, w: -1}
  - {x: 1, y: 0, z: 0, w: -1}
  - {x: 1, y: 0, z: 0, w: -1}
  - {x: 1, y: 0, z: 0, w: -1}
  - {x: 1, y: 0, z: 0, w: -1}
  - {x: -1, y: 0, z: 0, w: -1}
  - {x: -1, y: 0, z: 0, w: -1}
  - {x: -1, y: 0, z: 0, w: -1}
  - {x: -1, y: 0, z: 0, w: -1}
  - {x: -1, y: 0, z: 0, w: -1}
  - {x: -1, y: 0, z: 0, w: -1}
  - {x: -1, y: 0, z: 0, w: -1}
  - {x: -1, y: 0, z: 0, w: -1}
  - {x: 1, y: 0, z: 0, w: -1}
  - {x: 1, y: 0, z: 0, w: -1}
  - {x: 1, y: 0, z: 0, w: -1}
  - {x: 1, y: 0, z: 0, w: -1}
  - {x: -1, y: 0, z: 0, w: -1}
  - {x: -1, y: 0, z: 0, w: -1}
  - {x: -1, y: 0, z: 0, w: -1}
  - {x: -1, y: 0, z: 0, w: -1}
  - {x: 1, y: 0, z: 0, w: -1}
  - {x: 1, y: 0, z: 0, w: -1}
  - {x: 1, y: 0, z: 0, w: -1}
  - {x: 1, y: 0, z: 0, w: -1}
  - {x: -1, y: 0, z: 0, w: -1}
  - {x: -1, y: 0, z: 0, w: -1}
  - {x: -1, y: 0, z: 0, w: -1}
  - {x: -1, y: 0, z: 0, w: -1}
  - {x: 0, y: 0, z: 1, w: -1}
  - {x: 0, y: 0, z: 1, w: -1}
  - {x: 0, y: 0, z: 1, w: -1}
  - {x: 0, y: 0, z: 1, w: -1}
  - {x: 1, y: 0, z: 0, w: -1}
  - {x: 1, y: 0, z: 0, w: -1}
  - {x: 1, y: 0, z: 0, w: -1}
  - {x: 1, y: 0, z: 0, w: -1}
  - {x: 0, y: 0, z: -1, w: -1}
  - {x: 0, y: 0, z: -1, w: -1}
  - {x: 0, y: 0, z: -1, w: -1}
  - {x: 0, y: 0, z: -1, w: -1}
  - {x: -1, y: 0, z: 0, w: -1}
  - {x: -1, y: 0, z: 0, w: -1}
  - {x: -1, y: 0, z: 0, w: -1}
  - {x: -1, y: 0, z: 0, w: -1}
  - {x: -1, y: 0, z: 0, w: -1}
  - {x: -1, y: 0, z: 0, w: -1}
  - {x: -1, y: 0, z: 0, w: -1}
  - {x: -1, y: 0, z: 0, w: -1}
  - {x: 0, y: 0, z: 1, w: -1}
  - {x: 0, y: 0, z: 1, w: -1}
  - {x: 0, y: 0, z: 1, w: -1}
  - {x: 0, y: 0, z: 1, w: -1}
  - {x: 0, y: 0, z: 1, w: -1}
  - {x: 0, y: 0, z: 1, w: -1}
  - {x: 0, y: 0, z: 1, w: -1}
  - {x: 0, y: 0, z: 1, w: -1}
  - {x: 1, y: 0, z: 0, w: -1}
  - {x: 1, y: 0, z: 0, w: -1}
  - {x: 1, y: 0, z: 0, w: -1}
  - {x: 1, y: 0, z: 0, w: -1}
  - {x: 1, y: 0, z: 0, w: -1}
  - {x: 1, y: 0, z: 0, w: -1}
  - {x: 1, y: 0, z: 0, w: -1}
  - {x: 1, y: 0, z: 0, w: -1}
  - {x: 0, y: 0, z: -1, w: -1}
  - {x: 0, y: 0, z: -1, w: -1}
  - {x: 0, y: 0, z: -1, w: -1}
  - {x: 0, y: 0, z: -1, w: -1}
  - {x: 0, y: 0, z: -1, w: -1}
  - {x: 0, y: 0, z: -1, w: -1}
  - {x: 0, y: 0, z: -1, w: -1}
  - {x: 0, y: 0, z: -1, w: -1}
  - {x: 1, y: 0, z: 0, w: -1}
  - {x: 1, y: 0, z: 0, w: -1}
  - {x: 1, y: 0, z: 0, w: -1}
  - {x: 1, y: 0, z: 0, w: -1}
  - {x: 1, y: 0, z: 0, w: -1}
  - {x: 1, y: 0, z: 0, w: -1}
  - {x: 1, y: 0, z: 0, w: -1}
  - {x: 1, y: 0, z: 0, w: -1}
  - {x: -1, y: 0, z: 0, w: -1}
  - {x: -1, y: 0, z: 0, w: -1}
  - {x: -1, y: 0, z: 0, w: -1}
  - {x: -1, y: 0, z: 0, w: -1}
  - {x: -1, y: 0, z: 0, w: -1}
  - {x: -1, y: 0, z: 0, w: -1}
  - {x: -1, y: 0, z: 0, w: -1}
  - {x: -1, y: 0, z: 0, w: -1}
  - {x: -1, y: 0, z: 0, w: -1}
  - {x: -1, y: 0, z: 0, w: -1}
  - {x: -1, y: 0, z: 0, w: -1}
  - {x: -1, y: 0, z: 0, w: -1}
  - {x: -1, y: 0, z: 0, w: -1}
  - {x: -1, y: 0, z: 0, w: -1}
  - {x: -1, y: 0, z: 0, w: -1}
  - {x: -1, y: 0, z: 0, w: -1}
  - {x: 1, y: 0, z: 0, w: -1}
  - {x: 1, y: 0, z: 0, w: -1}
  - {x: 1, y: 0, z: 0, w: -1}
  - {x: 1, y: 0, z: 0, w: -1}
  - {x: 1, y: 0, z: 0, w: -1}
  - {x: 1, y: 0, z: 0, w: -1}
  - {x: 1, y: 0, z: 0, w: -1}
  - {x: 1, y: 0, z: 0, w: -1}
  m_Colors: []
  m_UnwrapParameters:
    m_HardAngle: 88
    m_PackMargin: 20
    m_AngleError: 8
    m_AreaError: 15
  m_PreserveMeshAssetOnDestroy: 0
  assetGuid: 
  m_Mesh: {fileID: 0}
  m_VersionIndex: 5338
  m_IsSelectable: 1
  m_SelectedFaces: 
  m_SelectedEdges: []
  m_SelectedVertices: 
--- !u!114 &3497580799484107986
MonoBehaviour:
  m_ObjectHideFlags: 0
  m_CorrespondingSourceObject: {fileID: 0}
  m_PrefabInstance: {fileID: 0}
  m_PrefabAsset: {fileID: 0}
  m_GameObject: {fileID: 3497580799484107990}
  m_Enabled: 1
  m_EditorHideFlags: 0
  m_Script: {fileID: 11500000, guid: 1ca002da428252441b92f28d83c8a65f, type: 3}
  m_Name: 
  m_EditorClassIdentifier: 
  m_Shape:
    rid: 7499466711613833218
  m_Size: {x: 2, y: 2, z: 2}
  m_Rotation: {x: 0, y: 0, z: 0, w: 1}
  m_PivotLocation: 0
  m_PivotPosition: {x: 0, y: 0, z: 0}
  m_UnmodifiedMeshVersion: 514
  m_ShapeBox:
    m_Center: {x: 0, y: 0, z: 0}
    m_Extent: {x: 1, y: 1, z: 1}
  references:
    version: 2
    RefIds:
    - rid: 7499466711613833218
      type: {class: Cube, ns: UnityEngine.ProBuilder.Shapes, asm: Unity.ProBuilder}
--- !u!23 &3497580799484107985
MeshRenderer:
  m_ObjectHideFlags: 0
  m_CorrespondingSourceObject: {fileID: 0}
  m_PrefabInstance: {fileID: 0}
  m_PrefabAsset: {fileID: 0}
  m_GameObject: {fileID: 3497580799484107990}
  m_Enabled: 1
  m_CastShadows: 1
  m_ReceiveShadows: 1
  m_DynamicOccludee: 1
  m_StaticShadowCaster: 0
  m_MotionVectors: 1
  m_LightProbeUsage: 1
  m_ReflectionProbeUsage: 1
  m_RayTracingMode: 2
  m_RayTraceProcedural: 0
  m_RenderingLayerMask: 1
  m_RendererPriority: 0
  m_Materials:
  - {fileID: 2100000, guid: 80e324e510010d345b1c485f6db9262d, type: 2}
  m_StaticBatchInfo:
    firstSubMesh: 0
    subMeshCount: 0
  m_StaticBatchRoot: {fileID: 0}
  m_ProbeAnchor: {fileID: 0}
  m_LightProbeVolumeOverride: {fileID: 0}
  m_ScaleInLightmap: 1
  m_ReceiveGI: 1
  m_PreserveUVs: 0
  m_IgnoreNormalsForChartDetection: 0
  m_ImportantGI: 0
  m_StitchLightmapSeams: 1
  m_SelectedEditorRenderState: 2
  m_MinimumChartSize: 4
  m_AutoUVMaxDistance: 0.5
  m_AutoUVMaxAngle: 89
  m_LightmapParameters: {fileID: 0}
  m_SortingLayerID: 0
  m_SortingLayer: 0
  m_SortingOrder: 0
  m_AdditionalVertexStreams: {fileID: 0}
--- !u!33 &3497580799484107984
MeshFilter:
  m_ObjectHideFlags: 0
  m_CorrespondingSourceObject: {fileID: 0}
  m_PrefabInstance: {fileID: 0}
  m_PrefabAsset: {fileID: 0}
  m_GameObject: {fileID: 3497580799484107990}
  m_Mesh: {fileID: 0}
--- !u!64 &3497580799484107991
MeshCollider:
  m_ObjectHideFlags: 0
  m_CorrespondingSourceObject: {fileID: 0}
  m_PrefabInstance: {fileID: 0}
  m_PrefabAsset: {fileID: 0}
  m_GameObject: {fileID: 3497580799484107990}
  m_Material: {fileID: 0}
  m_IsTrigger: 0
  m_Enabled: 1
  serializedVersion: 4
  m_Convex: 0
  m_CookingOptions: 30
  m_Mesh: {fileID: 0}
--- !u!1 &3497580799567957012
GameObject:
  m_ObjectHideFlags: 0
  m_CorrespondingSourceObject: {fileID: 0}
  m_PrefabInstance: {fileID: 0}
  m_PrefabAsset: {fileID: 0}
  serializedVersion: 6
  m_Component:
  - component: {fileID: 3497580799567957010}
  - component: {fileID: 3497580799567957009}
  - component: {fileID: 3497580799567957008}
  - component: {fileID: 3497580799567957015}
  - component: {fileID: 3497580799567957014}
  - component: {fileID: 3497580799567957013}
  m_Layer: 0
  m_Name: hot switch
  m_TagString: Untagged
  m_Icon: {fileID: 0}
  m_NavMeshLayer: 0
  m_StaticEditorFlags: 2147483647
  m_IsActive: 1
--- !u!4 &3497580799567957010
Transform:
  m_ObjectHideFlags: 0
  m_CorrespondingSourceObject: {fileID: 0}
  m_PrefabInstance: {fileID: 0}
  m_PrefabAsset: {fileID: 0}
  m_GameObject: {fileID: 3497580799567957012}
  m_LocalRotation: {x: -0, y: -0, z: -0, w: 1}
  m_LocalPosition: {x: -0.22009999, y: 0.0716, z: 0.4409}
  m_LocalScale: {x: 1, y: 1, z: 1}
  m_ConstrainProportionsScale: 0
  m_Children: []
  m_Father: {fileID: 3497580798477640675}
  m_RootOrder: 2
  m_LocalEulerAnglesHint: {x: 0, y: 0, z: 0}
--- !u!114 &3497580799567957009
MonoBehaviour:
  m_ObjectHideFlags: 0
  m_CorrespondingSourceObject: {fileID: 0}
  m_PrefabInstance: {fileID: 0}
  m_PrefabAsset: {fileID: 0}
  m_GameObject: {fileID: 3497580799567957012}
  m_Enabled: 1
  m_EditorHideFlags: 0
  m_Script: {fileID: 11500000, guid: 8233d90336aea43098adf6dbabd606a2, type: 3}
  m_Name: 
  m_EditorClassIdentifier: 
  m_MeshFormatVersion: 2
  m_Faces:
  - m_Indexes: 000000000100000002000000010000000300000002000000
    m_SmoothingGroup: 0
    m_Uv:
      m_UseWorldSpace: 0
      m_FlipU: 0
      m_FlipV: 0
      m_SwapUV: 0
      m_Fill: 1
      m_Scale: {x: 1, y: 1}
      m_Offset: {x: 0, y: 0}
      m_Rotation: 0
      m_Anchor: 9
    m_Material: {fileID: 0}
    m_SubmeshIndex: 0
    m_ManualUV: 0
    elementGroup: -1
    m_TextureGroup: -1
  - m_Indexes: 040000000500000006000000050000000700000006000000
    m_SmoothingGroup: 0
    m_Uv:
      m_UseWorldSpace: 0
      m_FlipU: 0
      m_FlipV: 0
      m_SwapUV: 0
      m_Fill: 1
      m_Scale: {x: 1, y: 1}
      m_Offset: {x: 0, y: 0}
      m_Rotation: 0
      m_Anchor: 9
    m_Material: {fileID: 0}
    m_SubmeshIndex: 0
    m_ManualUV: 0
    elementGroup: -1
    m_TextureGroup: -1
  - m_Indexes: 08000000090000000a000000090000000b0000000a000000
    m_SmoothingGroup: 0
    m_Uv:
      m_UseWorldSpace: 0
      m_FlipU: 0
      m_FlipV: 0
      m_SwapUV: 0
      m_Fill: 1
      m_Scale: {x: 1, y: 1}
      m_Offset: {x: 0, y: 0}
      m_Rotation: 0
      m_Anchor: 9
    m_Material: {fileID: 0}
    m_SubmeshIndex: 0
    m_ManualUV: 0
    elementGroup: -1
    m_TextureGroup: -1
  - m_Indexes: 0c0000000d0000000e0000000d0000000f0000000e000000
    m_SmoothingGroup: 0
    m_Uv:
      m_UseWorldSpace: 0
      m_FlipU: 0
      m_FlipV: 0
      m_SwapUV: 0
      m_Fill: 1
      m_Scale: {x: 1, y: 1}
      m_Offset: {x: 0, y: 0}
      m_Rotation: 0
      m_Anchor: 9
    m_Material: {fileID: 0}
    m_SubmeshIndex: 0
    m_ManualUV: 0
    elementGroup: -1
    m_TextureGroup: -1
  - m_Indexes: 100000001100000012000000110000001300000012000000
    m_SmoothingGroup: 0
    m_Uv:
      m_UseWorldSpace: 0
      m_FlipU: 0
      m_FlipV: 0
      m_SwapUV: 0
      m_Fill: 1
      m_Scale: {x: 1, y: 1}
      m_Offset: {x: 0, y: 0}
      m_Rotation: 0
      m_Anchor: 9
    m_Material: {fileID: 0}
    m_SubmeshIndex: 0
    m_ManualUV: 0
    elementGroup: -1
    m_TextureGroup: -1
  - m_Indexes: 140000001500000016000000150000001700000016000000
    m_SmoothingGroup: 0
    m_Uv:
      m_UseWorldSpace: 0
      m_FlipU: 0
      m_FlipV: 0
      m_SwapUV: 0
      m_Fill: 1
      m_Scale: {x: 1, y: 1}
      m_Offset: {x: 0, y: 0}
      m_Rotation: 0
      m_Anchor: 9
    m_Material: {fileID: 0}
    m_SubmeshIndex: 0
    m_ManualUV: 0
    elementGroup: -1
    m_TextureGroup: -1
  m_SharedVertices:
  - m_Vertices: 000000000d00000016000000
  - m_Vertices: 010000000400000017000000
  - m_Vertices: 020000000f00000010000000
  - m_Vertices: 030000000600000011000000
  - m_Vertices: 050000000800000015000000
  - m_Vertices: 070000000a00000013000000
  - m_Vertices: 090000000c00000014000000
  - m_Vertices: 0b0000000e00000012000000
  m_SharedTextures: []
  m_Positions:
  - {x: -0.01910454, y: -0.05, z: 0.019529194}
  - {x: 0.019490153, y: -0.05, z: 0.019529194}
  - {x: -0.01910454, y: 0.05, z: 0.019529194}
  - {x: 0.019490153, y: 0.05, z: 0.019529194}
  - {x: 0.019490153, y: -0.05, z: 0.019529194}
  - {x: 0.019490153, y: -0.05, z: -0.02015987}
  - {x: 0.019490153, y: 0.05, z: 0.019529194}
  - {x: 0.019490153, y: 0.05, z: -0.02015987}
  - {x: 0.019490153, y: -0.05, z: -0.02015987}
  - {x: -0.01910454, y: -0.05, z: -0.02015987}
  - {x: 0.019490153, y: 0.05, z: -0.02015987}
  - {x: -0.01910454, y: 0.05, z: -0.02015987}
  - {x: -0.01910454, y: -0.05, z: -0.02015987}
  - {x: -0.01910454, y: -0.05, z: 0.019529194}
  - {x: -0.01910454, y: 0.05, z: -0.02015987}
  - {x: -0.01910454, y: 0.05, z: 0.019529194}
  - {x: -0.01910454, y: 0.05, z: 0.019529194}
  - {x: 0.019490153, y: 0.05, z: 0.019529194}
  - {x: -0.01910454, y: 0.05, z: -0.02015987}
  - {x: 0.019490153, y: 0.05, z: -0.02015987}
  - {x: -0.01910454, y: -0.05, z: -0.02015987}
  - {x: 0.019490153, y: -0.05, z: -0.02015987}
  - {x: -0.01910454, y: -0.05, z: 0.019529194}
  - {x: 0.019490153, y: -0.05, z: 0.019529194}
  m_Textures0:
  - {x: 0.01910454, y: -0.05}
  - {x: -0.019490153, y: -0.05}
  - {x: 0.01910454, y: 0.05}
  - {x: -0.019490153, y: 0.05}
  - {x: 0.019529194, y: -0.05}
  - {x: -0.02015987, y: -0.05}
  - {x: 0.019529194, y: 0.05}
  - {x: -0.02015987, y: 0.05}
  - {x: 0.019490153, y: -0.05}
  - {x: -0.01910454, y: -0.05}
  - {x: 0.019490153, y: 0.05}
  - {x: -0.01910454, y: 0.05}
  - {x: 0.02015987, y: -0.05}
  - {x: -0.019529194, y: -0.05}
  - {x: 0.02015987, y: 0.05}
  - {x: -0.019529194, y: 0.05}
  - {x: -0.01910454, y: 0.019529194}
  - {x: 0.019490153, y: 0.019529194}
  - {x: -0.01910454, y: -0.02015987}
  - {x: 0.019490153, y: -0.02015987}
  - {x: 0.01910454, y: -0.02015987}
  - {x: -0.019490153, y: -0.02015987}
  - {x: 0.01910454, y: 0.019529194}
  - {x: -0.019490153, y: 0.019529194}
  m_Textures2: []
  m_Textures3: []
  m_Tangents:
  - {x: -1, y: 0, z: 0, w: -1}
  - {x: -1, y: 0, z: 0, w: -1}
  - {x: -1, y: 0, z: 0, w: -1}
  - {x: -1, y: 0, z: 0, w: -1}
  - {x: 0, y: 0, z: 1, w: -1}
  - {x: 0, y: 0, z: 1, w: -1}
  - {x: 0, y: 0, z: 1, w: -1}
  - {x: 0, y: 0, z: 1, w: -1}
  - {x: 1, y: 0, z: 0, w: -1}
  - {x: 1, y: 0, z: 0, w: -1}
  - {x: 1, y: 0, z: 0, w: -1}
  - {x: 1, y: 0, z: 0, w: -1}
  - {x: 0, y: 0, z: -1, w: -1}
  - {x: 0, y: 0, z: -1, w: -1}
  - {x: 0, y: 0, z: -1, w: -1}
  - {x: 0, y: 0, z: -1, w: -1}
  - {x: 1, y: 0, z: 0, w: -1}
  - {x: 1, y: 0, z: 0, w: -1}
  - {x: 1, y: 0, z: 0, w: -1}
  - {x: 1, y: 0, z: 0, w: -1}
  - {x: -1, y: 0, z: 0, w: -1}
  - {x: -1, y: 0, z: 0, w: -1}
  - {x: -1, y: 0, z: 0, w: -1}
  - {x: -1, y: 0, z: 0, w: -1}
  m_Colors: []
  m_UnwrapParameters:
    m_HardAngle: 88
    m_PackMargin: 20
    m_AngleError: 8
    m_AreaError: 15
  m_PreserveMeshAssetOnDestroy: 0
  assetGuid: 
  m_Mesh: {fileID: 0}
  m_VersionIndex: 1314
  m_IsSelectable: 1
  m_SelectedFaces: 
  m_SelectedEdges: []
  m_SelectedVertices: 
--- !u!114 &3497580799567957008
MonoBehaviour:
  m_ObjectHideFlags: 0
  m_CorrespondingSourceObject: {fileID: 0}
  m_PrefabInstance: {fileID: 0}
  m_PrefabAsset: {fileID: 0}
  m_GameObject: {fileID: 3497580799567957012}
  m_Enabled: 1
  m_EditorHideFlags: 0
  m_Script: {fileID: 11500000, guid: 1ca002da428252441b92f28d83c8a65f, type: 3}
  m_Name: 
  m_EditorClassIdentifier: 
  m_Shape:
    rid: 7499466711613833219
  m_Size: {x: 0.1, y: 0.1, z: 0.1}
  m_Rotation: {x: 0, y: 0, z: 0, w: 1}
  m_PivotLocation: 0
  m_PivotPosition: {x: 0, y: 0, z: 0}
  m_UnmodifiedMeshVersion: 603
  m_ShapeBox:
    m_Center: {x: 0, y: 0, z: 0}
    m_Extent: {x: 0.05, y: 0.05, z: 0.05}
  references:
    version: 2
    RefIds:
    - rid: 7499466711613833219
      type: {class: Cube, ns: UnityEngine.ProBuilder.Shapes, asm: Unity.ProBuilder}
--- !u!23 &3497580799567957015
MeshRenderer:
  m_ObjectHideFlags: 0
  m_CorrespondingSourceObject: {fileID: 0}
  m_PrefabInstance: {fileID: 0}
  m_PrefabAsset: {fileID: 0}
  m_GameObject: {fileID: 3497580799567957012}
  m_Enabled: 1
  m_CastShadows: 1
  m_ReceiveShadows: 1
  m_DynamicOccludee: 1
  m_StaticShadowCaster: 0
  m_MotionVectors: 1
  m_LightProbeUsage: 1
  m_ReflectionProbeUsage: 1
  m_RayTracingMode: 2
  m_RayTraceProcedural: 0
  m_RenderingLayerMask: 1
  m_RendererPriority: 0
  m_Materials:
  - {fileID: 2100000, guid: c5fa27b8a114caf4f8e73d5a1e851786, type: 2}
  m_StaticBatchInfo:
    firstSubMesh: 0
    subMeshCount: 0
  m_StaticBatchRoot: {fileID: 0}
  m_ProbeAnchor: {fileID: 0}
  m_LightProbeVolumeOverride: {fileID: 0}
  m_ScaleInLightmap: 1
  m_ReceiveGI: 1
  m_PreserveUVs: 0
  m_IgnoreNormalsForChartDetection: 0
  m_ImportantGI: 0
  m_StitchLightmapSeams: 1
  m_SelectedEditorRenderState: 2
  m_MinimumChartSize: 4
  m_AutoUVMaxDistance: 0.5
  m_AutoUVMaxAngle: 89
  m_LightmapParameters: {fileID: 0}
  m_SortingLayerID: 0
  m_SortingLayer: 0
  m_SortingOrder: 0
  m_AdditionalVertexStreams: {fileID: 0}
--- !u!33 &3497580799567957014
MeshFilter:
  m_ObjectHideFlags: 0
  m_CorrespondingSourceObject: {fileID: 0}
  m_PrefabInstance: {fileID: 0}
  m_PrefabAsset: {fileID: 0}
  m_GameObject: {fileID: 3497580799567957012}
  m_Mesh: {fileID: 0}
--- !u!64 &3497580799567957013
MeshCollider:
  m_ObjectHideFlags: 0
  m_CorrespondingSourceObject: {fileID: 0}
  m_PrefabInstance: {fileID: 0}
  m_PrefabAsset: {fileID: 0}
  m_GameObject: {fileID: 3497580799567957012}
  m_Material: {fileID: 0}
  m_IsTrigger: 0
  m_Enabled: 1
  serializedVersion: 4
  m_Convex: 0
  m_CookingOptions: 30
  m_Mesh: {fileID: 0}
--- !u!1 &3497580800160512042
GameObject:
  m_ObjectHideFlags: 0
  m_CorrespondingSourceObject: {fileID: 0}
  m_PrefabInstance: {fileID: 0}
  m_PrefabAsset: {fileID: 0}
  serializedVersion: 6
  m_Component:
  - component: {fileID: 3497580800160512032}
  - component: {fileID: 3497580800160512039}
  - component: {fileID: 3497580800160512038}
  - component: {fileID: 3497580800160512037}
  - component: {fileID: 3497580800160512036}
  - component: {fileID: 3497580800160512043}
  m_Layer: 0
  m_Name: walls
  m_TagString: Untagged
  m_Icon: {fileID: 0}
  m_NavMeshLayer: 0
  m_StaticEditorFlags: 2147483647
  m_IsActive: 1
--- !u!4 &3497580800160512032
Transform:
  m_ObjectHideFlags: 0
  m_CorrespondingSourceObject: {fileID: 0}
  m_PrefabInstance: {fileID: 0}
  m_PrefabAsset: {fileID: 0}
  m_GameObject: {fileID: 3497580800160512042}
  m_LocalRotation: {x: -0, y: -0, z: -0, w: 1}
  m_LocalPosition: {x: 0.243, y: 0, z: 0}
  m_LocalScale: {x: 1, y: 1, z: 1}
  m_ConstrainProportionsScale: 0
  m_Children: []
  m_Father: {fileID: 3497580798477640675}
  m_RootOrder: 0
  m_LocalEulerAnglesHint: {x: 0, y: 0, z: 0}
--- !u!114 &3497580800160512039
MonoBehaviour:
  m_ObjectHideFlags: 0
  m_CorrespondingSourceObject: {fileID: 0}
  m_PrefabInstance: {fileID: 0}
  m_PrefabAsset: {fileID: 0}
  m_GameObject: {fileID: 3497580800160512042}
  m_Enabled: 1
  m_EditorHideFlags: 0
  m_Script: {fileID: 11500000, guid: 8233d90336aea43098adf6dbabd606a2, type: 3}
  m_Name: 
  m_EditorClassIdentifier: 
  m_MeshFormatVersion: 2
  m_Faces:
  - m_Indexes: 000000000100000002000000010000000300000002000000
    m_SmoothingGroup: 0
    m_Uv:
      m_UseWorldSpace: 0
      m_FlipU: 0
      m_FlipV: 0
      m_SwapUV: 0
      m_Fill: 1
      m_Scale: {x: 1, y: 1}
      m_Offset: {x: 0, y: 0}
      m_Rotation: 0
      m_Anchor: 9
    m_Material: {fileID: 0}
    m_SubmeshIndex: 0
    m_ManualUV: 0
    elementGroup: -1
    m_TextureGroup: -1
  - m_Indexes: 040000000500000006000000050000000700000006000000
    m_SmoothingGroup: 0
    m_Uv:
      m_UseWorldSpace: 0
      m_FlipU: 0
      m_FlipV: 0
      m_SwapUV: 0
      m_Fill: 1
      m_Scale: {x: 1, y: 1}
      m_Offset: {x: 0, y: 0}
      m_Rotation: 0
      m_Anchor: 9
    m_Material: {fileID: 0}
    m_SubmeshIndex: 0
    m_ManualUV: 0
    elementGroup: -1
    m_TextureGroup: -1
  - m_Indexes: 08000000090000000a0000000b000000080000000a000000
    m_SmoothingGroup: 0
    m_Uv:
      m_UseWorldSpace: 0
      m_FlipU: 0
      m_FlipV: 0
      m_SwapUV: 0
      m_Fill: 1
      m_Scale: {x: 1, y: 1}
      m_Offset: {x: 0, y: 0}
      m_Rotation: 0
      m_Anchor: 9
    m_Material: {fileID: 2100000, guid: c22777d6e868e4f2fb421913386b154e, type: 2}
    m_SubmeshIndex: 0
    m_ManualUV: 0
    elementGroup: 0
    m_TextureGroup: 1
  - m_Indexes: 0f0000000d0000000e0000000f0000000c0000000d000000
    m_SmoothingGroup: 0
    m_Uv:
      m_UseWorldSpace: 0
      m_FlipU: 0
      m_FlipV: 0
      m_SwapUV: 0
      m_Fill: 1
      m_Scale: {x: 1, y: 1}
      m_Offset: {x: 0, y: 0}
      m_Rotation: 0
      m_Anchor: 9
    m_Material: {fileID: 2100000, guid: c22777d6e868e4f2fb421913386b154e, type: 2}
    m_SubmeshIndex: 0
    m_ManualUV: 0
    elementGroup: 0
    m_TextureGroup: -1
  - m_Indexes: 120000001300000010000000110000001200000010000000
    m_SmoothingGroup: 0
    m_Uv:
      m_UseWorldSpace: 0
      m_FlipU: 0
      m_FlipV: 0
      m_SwapUV: 0
      m_Fill: 1
      m_Scale: {x: 1, y: 1}
      m_Offset: {x: 0, y: 0}
      m_Rotation: 0
      m_Anchor: 9
    m_Material: {fileID: 2100000, guid: c22777d6e868e4f2fb421913386b154e, type: 2}
    m_SubmeshIndex: 0
    m_ManualUV: 0
    elementGroup: 0
    m_TextureGroup: 3
  - m_Indexes: 170000001500000016000000170000001400000015000000
    m_SmoothingGroup: 0
    m_Uv:
      m_UseWorldSpace: 0
      m_FlipU: 0
      m_FlipV: 0
      m_SwapUV: 0
      m_Fill: 1
      m_Scale: {x: 1, y: 1}
      m_Offset: {x: 0, y: 0}
      m_Rotation: 0
      m_Anchor: 9
    m_Material: {fileID: 2100000, guid: c22777d6e868e4f2fb421913386b154e, type: 2}
    m_SubmeshIndex: 0
    m_ManualUV: 0
    elementGroup: 0
    m_TextureGroup: 4
  - m_Indexes: 18000000190000001b000000190000001a0000001b000000
    m_SmoothingGroup: 0
    m_Uv:
      m_UseWorldSpace: 0
      m_FlipU: 0
      m_FlipV: 0
      m_SwapUV: 0
      m_Fill: 1
      m_Scale: {x: 1, y: 1}
      m_Offset: {x: 0, y: 0}
      m_Rotation: 0
      m_Anchor: 9
    m_Material: {fileID: 2100000, guid: c22777d6e868e4f2fb421913386b154e, type: 2}
    m_SubmeshIndex: 0
    m_ManualUV: 0
    elementGroup: 0
    m_TextureGroup: 1
  - m_Indexes: 1c0000001d0000001f0000001d0000001e0000001f000000
    m_SmoothingGroup: 0
    m_Uv:
      m_UseWorldSpace: 0
      m_FlipU: 0
      m_FlipV: 0
      m_SwapUV: 0
      m_Fill: 1
      m_Scale: {x: 1, y: 1}
      m_Offset: {x: 0, y: 0}
      m_Rotation: 0
      m_Anchor: 9
    m_Material: {fileID: 2100000, guid: c22777d6e868e4f2fb421913386b154e, type: 2}
    m_SubmeshIndex: 0
    m_ManualUV: 0
    elementGroup: 0
    m_TextureGroup: 1
  - m_Indexes: 210000002200000023000000210000002300000020000000
    m_SmoothingGroup: 0
    m_Uv:
      m_UseWorldSpace: 0
      m_FlipU: 0
      m_FlipV: 0
      m_SwapUV: 0
      m_Fill: 1
      m_Scale: {x: 1, y: 1}
      m_Offset: {x: 0, y: 0}
      m_Rotation: 0
      m_Anchor: 9
    m_Material: {fileID: 2100000, guid: c22777d6e868e4f2fb421913386b154e, type: 2}
    m_SubmeshIndex: 0
    m_ManualUV: 0
    elementGroup: 0
    m_TextureGroup: 2
  - m_Indexes: 240000002500000026000000240000002600000027000000
    m_SmoothingGroup: 0
    m_Uv:
      m_UseWorldSpace: 0
      m_FlipU: 0
      m_FlipV: 0
      m_SwapUV: 0
      m_Fill: 1
      m_Scale: {x: 1, y: 1}
      m_Offset: {x: 0, y: 0}
      m_Rotation: 0
      m_Anchor: 9
    m_Material: {fileID: 2100000, guid: c22777d6e868e4f2fb421913386b154e, type: 2}
    m_SubmeshIndex: 0
    m_ManualUV: 0
    elementGroup: 0
    m_TextureGroup: -1
  - m_Indexes: 28000000290000002b000000290000002a0000002b000000
    m_SmoothingGroup: 0
    m_Uv:
      m_UseWorldSpace: 0
      m_FlipU: 0
      m_FlipV: 0
      m_SwapUV: 0
      m_Fill: 1
      m_Scale: {x: 1, y: 1}
      m_Offset: {x: 0, y: 0}
      m_Rotation: 0
      m_Anchor: 9
    m_Material: {fileID: 2100000, guid: c22777d6e868e4f2fb421913386b154e, type: 2}
    m_SubmeshIndex: 0
    m_ManualUV: 0
    elementGroup: 0
    m_TextureGroup: 3
  - m_Indexes: 2c0000002d0000002f0000002d0000002e0000002f000000
    m_SmoothingGroup: 0
    m_Uv:
      m_UseWorldSpace: 0
      m_FlipU: 0
      m_FlipV: 0
      m_SwapUV: 0
      m_Fill: 1
      m_Scale: {x: 1, y: 1}
      m_Offset: {x: 0, y: 0}
      m_Rotation: 0
      m_Anchor: 9
    m_Material: {fileID: 2100000, guid: c22777d6e868e4f2fb421913386b154e, type: 2}
    m_SubmeshIndex: 0
    m_ManualUV: 0
    elementGroup: 0
    m_TextureGroup: 3
  - m_Indexes: 310000003200000033000000310000003300000030000000
    m_SmoothingGroup: 0
    m_Uv:
      m_UseWorldSpace: 0
      m_FlipU: 0
      m_FlipV: 0
      m_SwapUV: 0
      m_Fill: 1
      m_Scale: {x: 1, y: 1}
      m_Offset: {x: 0, y: 0}
      m_Rotation: 0
      m_Anchor: 9
    m_Material: {fileID: 2100000, guid: c22777d6e868e4f2fb421913386b154e, type: 2}
    m_SubmeshIndex: 0
    m_ManualUV: 0
    elementGroup: 0
    m_TextureGroup: 4
  - m_Indexes: 340000003500000036000000340000003600000037000000
    m_SmoothingGroup: 0
    m_Uv:
      m_UseWorldSpace: 0
      m_FlipU: 0
      m_FlipV: 0
      m_SwapUV: 0
      m_Fill: 1
      m_Scale: {x: 1, y: 1}
      m_Offset: {x: 0, y: 0}
      m_Rotation: 0
      m_Anchor: 9
    m_Material: {fileID: 2100000, guid: c22777d6e868e4f2fb421913386b154e, type: 2}
    m_SubmeshIndex: 0
    m_ManualUV: 0
    elementGroup: 0
    m_TextureGroup: 4
  - m_Indexes: 38000000390000003a000000390000003b0000003a000000
    m_SmoothingGroup: 0
    m_Uv:
      m_UseWorldSpace: 0
      m_FlipU: 0
      m_FlipV: 0
      m_SwapUV: 0
      m_Fill: 1
      m_Scale: {x: 1, y: 1}
      m_Offset: {x: 0, y: 0}
      m_Rotation: 0
      m_Anchor: 9
    m_Material: {fileID: 0}
    m_SubmeshIndex: 0
    m_ManualUV: 0
    elementGroup: -1
    m_TextureGroup: -1
  - m_Indexes: 3c0000003d0000003e0000003d0000003f0000003e000000
    m_SmoothingGroup: 0
    m_Uv:
      m_UseWorldSpace: 0
      m_FlipU: 0
      m_FlipV: 0
      m_SwapUV: 0
      m_Fill: 1
      m_Scale: {x: 1, y: 1}
      m_Offset: {x: 0, y: 0}
      m_Rotation: 0
      m_Anchor: 9
    m_Material: {fileID: 0}
    m_SubmeshIndex: 0
    m_ManualUV: 0
    elementGroup: -1
    m_TextureGroup: -1
  - m_Indexes: 400000004100000042000000410000004300000042000000
    m_SmoothingGroup: 0
    m_Uv:
      m_UseWorldSpace: 0
      m_FlipU: 0
      m_FlipV: 0
      m_SwapUV: 0
      m_Fill: 1
      m_Scale: {x: 1, y: 1}
      m_Offset: {x: 0, y: 0}
      m_Rotation: 0
      m_Anchor: 9
    m_Material: {fileID: 0}
    m_SubmeshIndex: 0
    m_ManualUV: 0
    elementGroup: -1
    m_TextureGroup: -1
  - m_Indexes: 440000004500000046000000450000004700000046000000
    m_SmoothingGroup: 0
    m_Uv:
      m_UseWorldSpace: 0
      m_FlipU: 0
      m_FlipV: 0
      m_SwapUV: 0
      m_Fill: 1
      m_Scale: {x: 1, y: 1}
      m_Offset: {x: 0, y: 0}
      m_Rotation: 0
      m_Anchor: 9
    m_Material: {fileID: 0}
    m_SubmeshIndex: 0
    m_ManualUV: 0
    elementGroup: -1
    m_TextureGroup: -1
  - m_Indexes: 48000000490000004a000000490000004b0000004a000000
    m_SmoothingGroup: 0
    m_Uv:
      m_UseWorldSpace: 0
      m_FlipU: 0
      m_FlipV: 0
      m_SwapUV: 0
      m_Fill: 1
      m_Scale: {x: 1, y: 1}
      m_Offset: {x: 0, y: 0}
      m_Rotation: 0
      m_Anchor: 9
    m_Material: {fileID: 0}
    m_SubmeshIndex: 0
    m_ManualUV: 0
    elementGroup: -1
    m_TextureGroup: -1
  - m_Indexes: 4c0000004d0000004e0000004d0000004f0000004e000000
    m_SmoothingGroup: 0
    m_Uv:
      m_UseWorldSpace: 0
      m_FlipU: 0
      m_FlipV: 0
      m_SwapUV: 0
      m_Fill: 1
      m_Scale: {x: 1, y: 1}
      m_Offset: {x: 0, y: 0}
      m_Rotation: 0
      m_Anchor: 9
    m_Material: {fileID: 0}
    m_SubmeshIndex: 0
    m_ManualUV: 0
    elementGroup: -1
    m_TextureGroup: -1
  - m_Indexes: 500000005100000052000000510000005300000052000000
    m_SmoothingGroup: 0
    m_Uv:
      m_UseWorldSpace: 0
      m_FlipU: 0
      m_FlipV: 0
      m_SwapUV: 0
      m_Fill: 1
      m_Scale: {x: 1, y: 1}
      m_Offset: {x: 0, y: 0}
      m_Rotation: 0
      m_Anchor: 9
    m_Material: {fileID: 0}
    m_SubmeshIndex: 0
    m_ManualUV: 0
    elementGroup: -1
    m_TextureGroup: -1
  - m_Indexes: 540000005500000056000000550000005700000056000000
    m_SmoothingGroup: 0
    m_Uv:
      m_UseWorldSpace: 0
      m_FlipU: 0
      m_FlipV: 0
      m_SwapUV: 0
      m_Fill: 1
      m_Scale: {x: 1, y: 1}
      m_Offset: {x: 0, y: 0}
      m_Rotation: 0
      m_Anchor: 9
    m_Material: {fileID: 0}
    m_SubmeshIndex: 0
    m_ManualUV: 0
    elementGroup: -1
    m_TextureGroup: -1
  m_SharedVertices:
  - m_Vertices: 000000001d00000031000000
  - m_Vertices: 01000000300000004d00000050000000
  - m_Vertices: 260000004f00000052000000
  - m_Vertices: 020000001e0000002b000000
  - m_Vertices: 0300000028000000490000004c000000
  - m_Vertices: 250000004b0000004e000000
  - m_Vertices: 04000000140000003800000045000000
  - m_Vertices: 0d0000003a00000047000000
  - m_Vertices: 050000000800000017000000
  - m_Vertices: 0600000013000000390000003c000000
  - m_Vertices: 0e0000003b0000003e000000
  - m_Vertices: 070000000b00000010000000
  - m_Vertices: 09000000160000001800000035000000
  - m_Vertices: 0a000000110000001b0000002e000000
  - m_Vertices: 0c0000004300000046000000
  - m_Vertices: 1500000020000000360000004100000044000000
  - m_Vertices: 0f0000003f00000042000000
  - m_Vertices: 12000000210000002d0000003d00000040000000
  - m_Vertices: 190000001c0000003200000034000000
  - m_Vertices: 1a0000001f0000002a0000002f000000
  - m_Vertices: 22000000290000002c0000004800000055000000
  - m_Vertices: 240000004a00000057000000
  - m_Vertices: 2300000033000000370000005100000054000000
  - m_Vertices: 270000005300000056000000
  m_SharedTextures: []
  m_Positions:
  - {x: 0.5028095, y: -1, z: 0.5027299}
  - {x: 0.5028095, y: -1, z: 0.4799714}
  - {x: 0.5028095, y: 1, z: 0.5027299}
  - {x: 0.5028095, y: 1, z: 0.4799714}
  - {x: -1, y: -1, z: 0.4799714}
  - {x: -1, y: -1, z: 0.5027299}
  - {x: -1, y: 1, z: 0.4799714}
  - {x: -1, y: 1, z: 0.5027299}
  - {x: -1, y: -1, z: 0.5027299}
  - {x: -0.9748513, y: -1, z: 0.5027299}
  - {x: -0.9748513, y: 1, z: 0.5027299}
  - {x: -1, y: 1, z: 0.5027299}
  - {x: -0.9748513, y: -1, z: -1.0096741}
  - {x: -1, y: -1, z: -1.0096741}
  - {x: -1, y: 1, z: -1.0096741}
  - {x: -0.9748513, y: 1, z: -1.0096741}
  - {x: -1, y: 1, z: 0.5027299}
  - {x: -0.9748513, y: 1, z: 0.5027299}
  - {x: -0.9748513, y: 1, z: 0.4799714}
  - {x: -1, y: 1, z: 0.4799714}
  - {x: -1, y: -1, z: 0.4799714}
  - {x: -0.9748513, y: -1, z: 0.4799714}
  - {x: -0.9748513, y: -1, z: 0.5027299}
  - {x: -1, y: -1, z: 0.5027299}
  - {x: -0.9748513, y: -1, z: 0.5027299}
  - {x: 0.48178887, y: -1, z: 0.5027299}
  - {x: 0.48178887, y: 1, z: 0.5027299}
  - {x: -0.9748513, y: 1, z: 0.5027299}
  - {x: 0.48178887, y: -1, z: 0.5027299}
  - {x: 0.5028095, y: -1, z: 0.5027299}
  - {x: 0.5028095, y: 1, z: 0.5027299}
  - {x: 0.48178887, y: 1, z: 0.5027299}
  - {x: -0.9748513, y: -1, z: 0.4799714}
  - {x: -0.9748513, y: 1, z: 0.4799714}
  - {x: 0.48178887, y: 1, z: 0.4799714}
  - {x: 0.48178887, y: -1, z: 0.4799714}
  - {x: 0.48178887, y: 1, z: -1.0096741}
  - {x: 0.5028095, y: 1, z: -1.0096741}
  - {x: 0.5028095, y: -1, z: -1.0096741}
  - {x: 0.48178887, y: -1, z: -1.0096741}
  - {x: 0.5028095, y: 1, z: 0.4799714}
  - {x: 0.48178887, y: 1, z: 0.4799714}
  - {x: 0.48178887, y: 1, z: 0.5027299}
  - {x: 0.5028095, y: 1, z: 0.5027299}
  - {x: 0.48178887, y: 1, z: 0.4799714}
  - {x: -0.9748513, y: 1, z: 0.4799714}
  - {x: -0.9748513, y: 1, z: 0.5027299}
  - {x: 0.48178887, y: 1, z: 0.5027299}
  - {x: 0.5028095, y: -1, z: 0.4799714}
  - {x: 0.5028095, y: -1, z: 0.5027299}
  - {x: 0.48178887, y: -1, z: 0.5027299}
  - {x: 0.48178887, y: -1, z: 0.4799714}
  - {x: 0.48178887, y: -1, z: 0.5027299}
  - {x: -0.9748513, y: -1, z: 0.5027299}
  - {x: -0.9748513, y: -1, z: 0.4799714}
  - {x: 0.48178887, y: -1, z: 0.4799714}
  - {x: -1, y: -1, z: 0.4799714}
  - {x: -1, y: 1, z: 0.4799714}
  - {x: -1, y: -1, z: -1.0096741}
  - {x: -1, y: 1, z: -1.0096741}
  - {x: -1, y: 1, z: 0.4799714}
  - {x: -0.9748513, y: 1, z: 0.4799714}
  - {x: -1, y: 1, z: -1.0096741}
  - {x: -0.9748513, y: 1, z: -1.0096741}
  - {x: -0.9748513, y: 1, z: 0.4799714}
  - {x: -0.9748513, y: -1, z: 0.4799714}
  - {x: -0.9748513, y: 1, z: -1.0096741}
  - {x: -0.9748513, y: -1, z: -1.0096741}
  - {x: -0.9748513, y: -1, z: 0.4799714}
  - {x: -1, y: -1, z: 0.4799714}
  - {x: -0.9748513, y: -1, z: -1.0096741}
  - {x: -1, y: -1, z: -1.0096741}
  - {x: 0.48178887, y: 1, z: 0.4799714}
  - {x: 0.5028095, y: 1, z: 0.4799714}
  - {x: 0.48178887, y: 1, z: -1.0096741}
  - {x: 0.5028095, y: 1, z: -1.0096741}
  - {x: 0.5028095, y: 1, z: 0.4799714}
  - {x: 0.5028095, y: -1, z: 0.4799714}
  - {x: 0.5028095, y: 1, z: -1.0096741}
  - {x: 0.5028095, y: -1, z: -1.0096741}
  - {x: 0.5028095, y: -1, z: 0.4799714}
  - {x: 0.48178887, y: -1, z: 0.4799714}
  - {x: 0.5028095, y: -1, z: -1.0096741}
  - {x: 0.48178887, y: -1, z: -1.0096741}
  - {x: 0.48178887, y: -1, z: 0.4799714}
  - {x: 0.48178887, y: 1, z: 0.4799714}
  - {x: 0.48178887, y: -1, z: -1.0096741}
  - {x: 0.48178887, y: 1, z: -1.0096741}
  m_Textures0:
  - {x: 0.5027299, y: -1}
  - {x: 0.4799714, y: -1}
  - {x: 0.5027299, y: 1}
  - {x: 0.4799714, y: 1}
  - {x: -0.4799714, y: -1}
  - {x: -0.5027299, y: -1}
  - {x: -0.4799714, y: 1}
  - {x: -0.5027299, y: 1}
  - {x: 1, y: -1}
  - {x: 0.9748513, y: -1}
  - {x: 0.9748513, y: 1}
  - {x: 1, y: 1}
  - {x: -0.9748513, y: -1}
  - {x: -1, y: -1}
  - {x: -1, y: 1}
  - {x: -0.9748513, y: 1}
  - {x: -1, y: 0.5027299}
  - {x: -0.9748513, y: 0.5027299}
  - {x: -0.9748513, y: 0.4799714}
  - {x: -1, y: 0.4799714}
  - {x: 1, y: 0.4799714}
  - {x: 0.9748513, y: 0.4799714}
  - {x: 0.9748513, y: 0.5027299}
  - {x: 1, y: 0.5027299}
  - {x: 0.9748513, y: -1}
  - {x: -0.48178887, y: -1}
  - {x: -0.48178887, y: 1}
  - {x: 0.9748513, y: 1}
  - {x: -0.48178887, y: -1}
  - {x: -0.5028095, y: -1}
  - {x: -0.5028095, y: 1}
  - {x: -0.48178887, y: 1}
  - {x: -0.9748513, y: -1}
  - {x: -0.9748513, y: 1}
  - {x: 0.48178887, y: 1}
  - {x: 0.48178887, y: -1}
  - {x: 0.48178887, y: 1}
  - {x: 0.5028095, y: 1}
  - {x: 0.5028095, y: -1}
  - {x: 0.48178887, y: -1}
  - {x: 0.5028095, y: 0.4799714}
  - {x: 0.48178887, y: 0.4799714}
  - {x: 0.48178887, y: 0.5027299}
  - {x: 0.5028095, y: 0.5027299}
  - {x: 0.48178887, y: 0.4799714}
  - {x: -0.9748513, y: 0.4799714}
  - {x: -0.9748513, y: 0.5027299}
  - {x: 0.48178887, y: 0.5027299}
  - {x: -0.5028095, y: 0.4799714}
  - {x: -0.5028095, y: 0.5027299}
  - {x: -0.48178887, y: 0.5027299}
  - {x: -0.48178887, y: 0.4799714}
  - {x: -0.48178887, y: 0.5027299}
  - {x: 0.9748513, y: 0.5027299}
  - {x: 0.9748513, y: 0.4799714}
  - {x: -0.48178887, y: 0.4799714}
  - {x: -0.4799714, y: -1}
  - {x: -0.4799714, y: 1}
  - {x: 1.0096741, y: -1}
  - {x: 1.0096741, y: 1}
  - {x: -1, y: 0.4799714}
  - {x: -0.9748513, y: 0.4799714}
  - {x: -1, y: -1.0096741}
  - {x: -0.9748513, y: -1.0096741}
  - {x: 0.4799714, y: 1}
  - {x: 0.4799714, y: -1}
  - {x: -1.0096741, y: 1}
  - {x: -1.0096741, y: -1}
  - {x: 0.9748513, y: 0.4799714}
  - {x: 1, y: 0.4799714}
  - {x: 0.9748513, y: -1.0096741}
  - {x: 1, y: -1.0096741}
  - {x: 0.48178887, y: 0.4799714}
  - {x: 0.5028095, y: 0.4799714}
  - {x: 0.48178887, y: -1.0096741}
  - {x: 0.5028095, y: -1.0096741}
  - {x: 0.4799714, y: 1}
  - {x: 0.4799714, y: -1}
  - {x: -1.0096741, y: 1}
  - {x: -1.0096741, y: -1}
  - {x: -0.5028095, y: 0.4799714}
  - {x: -0.48178887, y: 0.4799714}
  - {x: -0.5028095, y: -1.0096741}
  - {x: -0.48178887, y: -1.0096741}
  - {x: -0.4799714, y: -1}
  - {x: -0.4799714, y: 1}
  - {x: 1.0096741, y: -1}
  - {x: 1.0096741, y: 1}
  m_Textures2: []
  m_Textures3: []
  m_Tangents:
  - {x: 0, y: 0, z: 1, w: -1}
  - {x: 0, y: 0, z: 1, w: -1}
  - {x: 0, y: 0, z: 1, w: -1}
  - {x: 0, y: 0, z: 1, w: -1}
  - {x: 0, y: 0, z: -1, w: -1}
  - {x: 0, y: 0, z: -1, w: -1}
  - {x: 0, y: 0, z: -1, w: -1}
  - {x: 0, y: 0, z: -1, w: -1}
  - {x: -1, y: 0, z: 0, w: -1}
  - {x: -1, y: 0, z: 0, w: -1}
  - {x: -1, y: 0, z: 0, w: -1}
  - {x: -1, y: 0, z: 0, w: -1}
  - {x: 1, y: 0, z: 0, w: -1}
  - {x: 1, y: 0, z: 0, w: -1}
  - {x: 1, y: 0, z: 0, w: -1}
  - {x: 1, y: 0, z: 0, w: -1}
  - {x: 1, y: 0, z: 0, w: -1}
  - {x: 1, y: 0, z: 0, w: -1}
  - {x: 1, y: 0, z: 0, w: -1}
  - {x: 1, y: 0, z: 0, w: -1}
  - {x: -1, y: 0, z: 0, w: -1}
  - {x: -1, y: 0, z: 0, w: -1}
  - {x: -1, y: 0, z: 0, w: -1}
  - {x: -1, y: 0, z: 0, w: -1}
  - {x: -1, y: 0, z: 0, w: -1}
  - {x: -1, y: 0, z: 0, w: -1}
  - {x: -1, y: 0, z: 0, w: -1}
  - {x: -1, y: 0, z: 0, w: -1}
  - {x: -1, y: 0, z: 0, w: -1}
  - {x: -1, y: 0, z: 0, w: -1}
  - {x: -1, y: 0, z: 0, w: -1}
  - {x: -1, y: 0, z: 0, w: -1}
  - {x: 1, y: 0, z: 0, w: -1}
  - {x: 1, y: 0, z: 0, w: -1}
  - {x: 1, y: 0, z: 0, w: -1}
  - {x: 1, y: 0, z: 0, w: -1}
  - {x: 1, y: 0, z: 0, w: -1}
  - {x: 1, y: 0, z: 0, w: -1}
  - {x: 1, y: 0, z: 0, w: -1}
  - {x: 1, y: 0, z: 0, w: -1}
  - {x: 1, y: 0, z: 0, w: -1}
  - {x: 1, y: 0, z: 0, w: -1}
  - {x: 1, y: 0, z: 0, w: -1}
  - {x: 1, y: 0, z: 0, w: -1}
  - {x: 1, y: 0, z: 0, w: -1}
  - {x: 1, y: 0, z: 0, w: -1}
  - {x: 1, y: 0, z: 0, w: -1}
  - {x: 1, y: 0, z: 0, w: -1}
  - {x: -1, y: 0, z: 0, w: -1}
  - {x: -1, y: 0, z: 0, w: -1}
  - {x: -1, y: 0, z: 0, w: -1}
  - {x: -1, y: 0, z: 0, w: -1}
  - {x: -1, y: 0, z: 0, w: -1}
  - {x: -1, y: 0, z: 0, w: -1}
  - {x: -1, y: 0, z: 0, w: -1}
  - {x: -1, y: 0, z: 0, w: -1}
  - {x: 0, y: 0, z: -1, w: -1}
  - {x: 0, y: 0, z: -1, w: -1}
  - {x: 0, y: 0, z: -1, w: -1}
  - {x: 0, y: 0, z: -1, w: -1}
  - {x: 1, y: 0, z: 0, w: -1}
  - {x: 1, y: 0, z: 0, w: -1}
  - {x: 1, y: 0, z: 0, w: -1}
  - {x: 1, y: 0, z: 0, w: -1}
  - {x: 0, y: 0, z: 1, w: -1}
  - {x: 0, y: 0, z: 1, w: -1}
  - {x: 0, y: 0, z: 1, w: -1}
  - {x: 0, y: 0, z: 1, w: -1}
  - {x: -1, y: 0, z: 0, w: -1}
  - {x: -1, y: 0, z: 0, w: -1}
  - {x: -1, y: 0, z: 0, w: -1}
  - {x: -1, y: 0, z: 0, w: -1}
  - {x: 1, y: 0, z: 0, w: -1}
  - {x: 1, y: 0, z: 0, w: -1}
  - {x: 1, y: 0, z: 0, w: -1}
  - {x: 1, y: 0, z: 0, w: -1}
  - {x: 0, y: 0, z: 1, w: -1}
  - {x: 0, y: 0, z: 1, w: -1}
  - {x: 0, y: 0, z: 1, w: -1}
  - {x: 0, y: 0, z: 1, w: -1}
  - {x: -1, y: 0, z: 0, w: -1}
  - {x: -1, y: 0, z: 0, w: -1}
  - {x: -1, y: 0, z: 0, w: -1}
  - {x: -1, y: 0, z: 0, w: -1}
  - {x: 0, y: 0, z: -1, w: -1}
  - {x: 0, y: 0, z: -1, w: -1}
  - {x: 0, y: 0, z: -1, w: -1}
  - {x: 0, y: 0, z: -1, w: -1}
  m_Colors: []
  m_UnwrapParameters:
    m_HardAngle: 88
    m_PackMargin: 20
    m_AngleError: 8
    m_AreaError: 15
  m_PreserveMeshAssetOnDestroy: 0
  assetGuid: 
  m_Mesh: {fileID: 0}
  m_VersionIndex: 4145
  m_IsSelectable: 1
  m_SelectedFaces: 
  m_SelectedEdges: []
  m_SelectedVertices: 
--- !u!114 &3497580800160512038
MonoBehaviour:
  m_ObjectHideFlags: 0
  m_CorrespondingSourceObject: {fileID: 0}
  m_PrefabInstance: {fileID: 0}
  m_PrefabAsset: {fileID: 0}
  m_GameObject: {fileID: 3497580800160512042}
  m_Enabled: 1
  m_EditorHideFlags: 0
  m_Script: {fileID: 11500000, guid: 1ca002da428252441b92f28d83c8a65f, type: 3}
  m_Name: 
  m_EditorClassIdentifier: 
  m_Shape:
    rid: 7499466711613833216
  m_Size: {x: 2, y: 2, z: 2}
  m_Rotation: {x: 0, y: 0, z: 0, w: 1}
  m_PivotLocation: 0
  m_PivotPosition: {x: 0, y: 0, z: 0}
  m_UnmodifiedMeshVersion: 745
  m_ShapeBox:
    m_Center: {x: 0, y: 0, z: 0}
    m_Extent: {x: 1, y: 1, z: 1}
  references:
    version: 2
    RefIds:
    - rid: 7499466711613833216
      type: {class: Cube, ns: UnityEngine.ProBuilder.Shapes, asm: Unity.ProBuilder}
--- !u!23 &3497580800160512037
MeshRenderer:
  m_ObjectHideFlags: 0
  m_CorrespondingSourceObject: {fileID: 0}
  m_PrefabInstance: {fileID: 0}
  m_PrefabAsset: {fileID: 0}
  m_GameObject: {fileID: 3497580800160512042}
  m_Enabled: 1
  m_CastShadows: 1
  m_ReceiveShadows: 1
  m_DynamicOccludee: 1
  m_StaticShadowCaster: 0
  m_MotionVectors: 1
  m_LightProbeUsage: 1
  m_ReflectionProbeUsage: 1
  m_RayTracingMode: 2
  m_RayTraceProcedural: 0
  m_RenderingLayerMask: 1
  m_RendererPriority: 0
  m_Materials:
  - {fileID: 2100000, guid: 9c06a9b52fd118e45ba1b81af1ee4494, type: 2}
  m_StaticBatchInfo:
    firstSubMesh: 0
    subMeshCount: 0
  m_StaticBatchRoot: {fileID: 0}
  m_ProbeAnchor: {fileID: 0}
  m_LightProbeVolumeOverride: {fileID: 0}
  m_ScaleInLightmap: 1
  m_ReceiveGI: 1
  m_PreserveUVs: 0
  m_IgnoreNormalsForChartDetection: 0
  m_ImportantGI: 0
  m_StitchLightmapSeams: 1
  m_SelectedEditorRenderState: 2
  m_MinimumChartSize: 4
  m_AutoUVMaxDistance: 0.5
  m_AutoUVMaxAngle: 89
  m_LightmapParameters: {fileID: 0}
  m_SortingLayerID: 0
  m_SortingLayer: 0
  m_SortingOrder: 0
  m_AdditionalVertexStreams: {fileID: 0}
--- !u!33 &3497580800160512036
MeshFilter:
  m_ObjectHideFlags: 0
  m_CorrespondingSourceObject: {fileID: 0}
  m_PrefabInstance: {fileID: 0}
  m_PrefabAsset: {fileID: 0}
  m_GameObject: {fileID: 3497580800160512042}
  m_Mesh: {fileID: 0}
--- !u!64 &3497580800160512043
MeshCollider:
  m_ObjectHideFlags: 0
  m_CorrespondingSourceObject: {fileID: 0}
  m_PrefabInstance: {fileID: 0}
  m_PrefabAsset: {fileID: 0}
  m_GameObject: {fileID: 3497580800160512042}
  m_Material: {fileID: 0}
  m_IsTrigger: 0
  m_Enabled: 1
  serializedVersion: 4
  m_Convex: 0
  m_CookingOptions: 30
  m_Mesh: {fileID: 0}
