%YAML 1.1
%TAG !u! tag:unity3d.com,2011:
--- !u!114 &11400000
MonoBehaviour:
  m_ObjectHideFlags: 0
  m_CorrespondingSourceObject: {fileID: 0}
  m_PrefabInstance: {fileID: 0}
  m_PrefabAsset: {fileID: 0}
  m_GameObject: {fileID: 0}
  m_Enabled: 1
  m_EditorHideFlags: 0
  m_Script: {fileID: 11500000, guid: 19cf91b5bccbe574a8e1f28c66088b09, type: 3}
  m_Name: InvSecondaryWeapon
  m_EditorClassIdentifier: 
  itemName: 
  amount: 0
  icon: {fileID: 0}
  stackable: 0
  itemType: 4
  damage: 0
  Range: 0
  fireRate: 0
  magSize: 0
  currentAmmo: 0
  burstInterval: 0
  burstAmount: 1
  ammoType: {fileID: 0}
  fireMode: 0
